M48
;DRILL file {KiCad 5.0.1} date Tue 05 Feb 2019 03:01:24 PM CET
;FORMAT={-:-/ absolute / metric / decimal}
FMAT,2
METRIC,TZ
T1C0.800
T2C0.900
T3C1.000
T4C1.016
%
G90
G05
M71
T1
X38.354Y-60.96
X46.228Y-36.322
X31.79Y-60.96
X34.29Y-60.96
X17.78Y-60.96
X27.94Y-60.96
X48.514Y-60.96
X46.228Y-46.482
T2
X17.78Y-12.192
X45.974Y-49.022
T3
X9.652Y-41.656
X9.652Y-44.196
X44.704Y-14.224
X44.704Y-16.764
X44.704Y-19.304
X44.704Y-21.844
X44.704Y-24.384
X44.704Y-26.924
X9.652Y-4.572
X9.652Y-7.112
X9.652Y-9.652
X9.652Y-12.192
X9.652Y-48.514
X9.652Y-51.054
X9.652Y-53.594
X9.652Y-56.134
X9.652Y-58.674
X9.652Y-61.214
X45.974Y-52.07
X45.974Y-54.61
X42.418Y-52.07
X42.418Y-54.61
X9.652Y-26.416
X9.652Y-28.956
X9.652Y-31.496
X9.652Y-34.036
X42.926Y-37.084
X42.926Y-39.624
X42.926Y-42.164
T4
X21.558Y-6.502
X21.558Y-9.042
X21.558Y-11.582
X21.558Y-14.122
X21.558Y-16.662
X21.558Y-19.202
X21.558Y-21.742
X21.558Y-24.282
X21.558Y-26.822
X21.558Y-29.362
X21.558Y-31.902
X21.558Y-34.442
X21.558Y-36.982
X21.558Y-39.522
X21.558Y-42.062
X21.558Y-44.602
X21.558Y-47.142
X21.558Y-49.682
X21.558Y-52.222
X21.558Y-54.762
X27.918Y-10.312
X30.458Y-10.312
X36.798Y-6.451
X36.798Y-9.042
X36.798Y-11.582
X36.798Y-14.122
X36.798Y-16.662
X36.798Y-19.202
X36.798Y-21.742
X36.798Y-24.282
X36.798Y-26.822
X36.798Y-29.362
X36.798Y-31.902
X36.798Y-34.442
X36.798Y-36.982
X36.798Y-39.522
X36.798Y-42.062
X36.798Y-44.602
X36.798Y-47.142
X36.798Y-49.682
X36.798Y-52.222
X36.798Y-54.762
T0
M30
