PCBNEW-LibModule-V1  2019-05-07 12:42:02
# encoding utf-8
Units mm
$INDEX
QFN40P600X600X90-49N
$EndINDEX
$MODULE QFN40P600X600X90-49N
Po 0 0 0 15 5cd16f0a 00000000 ~~
Li QFN40P600X600X90-49N
Cd QFN48
Kw Integrated Circuit
Sc 0
At SMD
AR 
Op 0 0 0
T0 0 0 1.27 1.27 0 0.254 N V 21 N "IC**"
T1 0 0 1.27 1.27 0 0.254 N I 21 N "QFN40P600X600X90-49N"
DS -3.625 -3.625 3.625 -3.625 0.05 24
DS 3.625 -3.625 3.625 3.625 0.05 24
DS 3.625 3.625 -3.625 3.625 0.05 24
DS -3.625 3.625 -3.625 -3.625 0.05 24
DS -3 -3 3 -3 0.1 24
DS 3 -3 3 3 0.1 24
DS 3 3 -3 3 0.1 24
DS -3 3 -3 -3 0.1 24
DS -3 -2.6 -2.6 -3 0.1 24
DC -3.375 -2.8 -3.275 -2.8 0.254 21
$PAD
Po -2.95 -2.2
Sh "1" R 0.2 0.85 0 0 900
At SMD N 00888000
Ne 0 ""
$EndPAD
$PAD
Po -2.95 -1.8
Sh "2" R 0.2 0.85 0 0 900
At SMD N 00888000
Ne 0 ""
$EndPAD
$PAD
Po -2.95 -1.4
Sh "3" R 0.2 0.85 0 0 900
At SMD N 00888000
Ne 0 ""
$EndPAD
$PAD
Po -2.95 -1
Sh "4" R 0.2 0.85 0 0 900
At SMD N 00888000
Ne 0 ""
$EndPAD
$PAD
Po -2.95 -0.6
Sh "5" R 0.2 0.85 0 0 900
At SMD N 00888000
Ne 0 ""
$EndPAD
$PAD
Po -2.95 -0.2
Sh "6" R 0.2 0.85 0 0 900
At SMD N 00888000
Ne 0 ""
$EndPAD
$PAD
Po -2.95 0.2
Sh "7" R 0.2 0.85 0 0 900
At SMD N 00888000
Ne 0 ""
$EndPAD
$PAD
Po -2.95 0.6
Sh "8" R 0.2 0.85 0 0 900
At SMD N 00888000
Ne 0 ""
$EndPAD
$PAD
Po -2.95 1
Sh "9" R 0.2 0.85 0 0 900
At SMD N 00888000
Ne 0 ""
$EndPAD
$PAD
Po -2.95 1.4
Sh "10" R 0.2 0.85 0 0 900
At SMD N 00888000
Ne 0 ""
$EndPAD
$PAD
Po -2.95 1.8
Sh "11" R 0.2 0.85 0 0 900
At SMD N 00888000
Ne 0 ""
$EndPAD
$PAD
Po -2.95 2.2
Sh "12" R 0.2 0.85 0 0 900
At SMD N 00888000
Ne 0 ""
$EndPAD
$PAD
Po -2.2 2.95
Sh "13" R 0.2 0.85 0 0 0
At SMD N 00888000
Ne 0 ""
$EndPAD
$PAD
Po -1.8 2.95
Sh "14" R 0.2 0.85 0 0 0
At SMD N 00888000
Ne 0 ""
$EndPAD
$PAD
Po -1.4 2.95
Sh "15" R 0.2 0.85 0 0 0
At SMD N 00888000
Ne 0 ""
$EndPAD
$PAD
Po -1 2.95
Sh "16" R 0.2 0.85 0 0 0
At SMD N 00888000
Ne 0 ""
$EndPAD
$PAD
Po -0.6 2.95
Sh "17" R 0.2 0.85 0 0 0
At SMD N 00888000
Ne 0 ""
$EndPAD
$PAD
Po -0.2 2.95
Sh "18" R 0.2 0.85 0 0 0
At SMD N 00888000
Ne 0 ""
$EndPAD
$PAD
Po 0.2 2.95
Sh "19" R 0.2 0.85 0 0 0
At SMD N 00888000
Ne 0 ""
$EndPAD
$PAD
Po 0.6 2.95
Sh "20" R 0.2 0.85 0 0 0
At SMD N 00888000
Ne 0 ""
$EndPAD
$PAD
Po 1 2.95
Sh "21" R 0.2 0.85 0 0 0
At SMD N 00888000
Ne 0 ""
$EndPAD
$PAD
Po 1.4 2.95
Sh "22" R 0.2 0.85 0 0 0
At SMD N 00888000
Ne 0 ""
$EndPAD
$PAD
Po 1.8 2.95
Sh "23" R 0.2 0.85 0 0 0
At SMD N 00888000
Ne 0 ""
$EndPAD
$PAD
Po 2.2 2.95
Sh "24" R 0.2 0.85 0 0 0
At SMD N 00888000
Ne 0 ""
$EndPAD
$PAD
Po 2.95 2.2
Sh "25" R 0.2 0.85 0 0 900
At SMD N 00888000
Ne 0 ""
$EndPAD
$PAD
Po 2.95 1.8
Sh "26" R 0.2 0.85 0 0 900
At SMD N 00888000
Ne 0 ""
$EndPAD
$PAD
Po 2.95 1.4
Sh "27" R 0.2 0.85 0 0 900
At SMD N 00888000
Ne 0 ""
$EndPAD
$PAD
Po 2.95 1
Sh "28" R 0.2 0.85 0 0 900
At SMD N 00888000
Ne 0 ""
$EndPAD
$PAD
Po 2.95 0.6
Sh "29" R 0.2 0.85 0 0 900
At SMD N 00888000
Ne 0 ""
$EndPAD
$PAD
Po 2.95 0.2
Sh "30" R 0.2 0.85 0 0 900
At SMD N 00888000
Ne 0 ""
$EndPAD
$PAD
Po 2.95 -0.2
Sh "31" R 0.2 0.85 0 0 900
At SMD N 00888000
Ne 0 ""
$EndPAD
$PAD
Po 2.95 -0.6
Sh "32" R 0.2 0.85 0 0 900
At SMD N 00888000
Ne 0 ""
$EndPAD
$PAD
Po 2.95 -1
Sh "33" R 0.2 0.85 0 0 900
At SMD N 00888000
Ne 0 ""
$EndPAD
$PAD
Po 2.95 -1.4
Sh "34" R 0.2 0.85 0 0 900
At SMD N 00888000
Ne 0 ""
$EndPAD
$PAD
Po 2.95 -1.8
Sh "35" R 0.2 0.85 0 0 900
At SMD N 00888000
Ne 0 ""
$EndPAD
$PAD
Po 2.95 -2.2
Sh "36" R 0.2 0.85 0 0 900
At SMD N 00888000
Ne 0 ""
$EndPAD
$PAD
Po 2.2 -2.95
Sh "37" R 0.2 0.85 0 0 0
At SMD N 00888000
Ne 0 ""
$EndPAD
$PAD
Po 1.8 -2.95
Sh "38" R 0.2 0.85 0 0 0
At SMD N 00888000
Ne 0 ""
$EndPAD
$PAD
Po 1.4 -2.95
Sh "39" R 0.2 0.85 0 0 0
At SMD N 00888000
Ne 0 ""
$EndPAD
$PAD
Po 1 -2.95
Sh "40" R 0.2 0.85 0 0 0
At SMD N 00888000
Ne 0 ""
$EndPAD
$PAD
Po 0.6 -2.95
Sh "41" R 0.2 0.85 0 0 0
At SMD N 00888000
Ne 0 ""
$EndPAD
$PAD
Po 0.2 -2.95
Sh "42" R 0.2 0.85 0 0 0
At SMD N 00888000
Ne 0 ""
$EndPAD
$PAD
Po -0.2 -2.95
Sh "43" R 0.2 0.85 0 0 0
At SMD N 00888000
Ne 0 ""
$EndPAD
$PAD
Po -0.6 -2.95
Sh "44" R 0.2 0.85 0 0 0
At SMD N 00888000
Ne 0 ""
$EndPAD
$PAD
Po -1 -2.95
Sh "45" R 0.2 0.85 0 0 0
At SMD N 00888000
Ne 0 ""
$EndPAD
$PAD
Po -1.4 -2.95
Sh "46" R 0.2 0.85 0 0 0
At SMD N 00888000
Ne 0 ""
$EndPAD
$PAD
Po -1.8 -2.95
Sh "47" R 0.2 0.85 0 0 0
At SMD N 00888000
Ne 0 ""
$EndPAD
$PAD
Po -2.2 -2.95
Sh "48" R 0.2 0.85 0 0 0
At SMD N 00888000
Ne 0 ""
$EndPAD
$PAD
Po 0 0
Sh "49" R 4.7 4.7 0 0 0
At SMD N 00888000
Ne 0 ""
$EndPAD
$EndMODULE QFN40P600X600X90-49N
$EndLIBRARY
