EESchema Schematic File Version 4
LIBS:pcb-cache
EELAYER 26 0
EELAYER END
$Descr A4 11693 8268
encoding utf-8
Sheet 1 1
Title ""
Date ""
Rev ""
Comp ""
Comment1 ""
Comment2 ""
Comment3 ""
Comment4 ""
$EndDescr
$Comp
L bluepill_breakouts:BluePill_STM32F103C U1
U 1 1 5C52C211
P 2450 3200
F 0 "U1" H 2475 1635 50  0000 C CNN
F 1 "BluePill_STM32F103C" H 2475 1726 50  0000 C CNN
F 2 "BluePill_breakouts:BluePill_STM32F103C" H 2500 1600 50  0001 C CNN
F 3 "www.rogerclark.net" H 2450 1700 50  0001 C CNN
	1    2450 3200
	-1   0    0    1   
$EndComp
$Comp
L Connector:Conn_01x04_Female J1
U 1 1 5C52C579
P 5150 2600
F 0 "J1" H 5178 2576 50  0000 L CNN
F 1 "mq-9" H 5178 2485 50  0000 L CNN
F 2 "Connector_PinSocket_2.54mm:PinSocket_1x04_P2.54mm_Vertical" H 5150 2600 50  0001 C CNN
F 3 "~" H 5150 2600 50  0001 C CNN
	1    5150 2600
	1    0    0    -1  
$EndComp
Wire Wire Line
	4800 2600 4950 2600
Wire Wire Line
	4950 2500 4800 2500
Wire Wire Line
	3300 3100 3850 3100
Wire Wire Line
	3850 3100 3850 2800
Wire Wire Line
	3850 2800 4950 2800
$Comp
L Connector:Conn_01x04_Female J2
U 1 1 5C52CA73
P 5150 3200
F 0 "J2" H 5178 3176 50  0000 L CNN
F 1 "mq-135" H 5178 3085 50  0000 L CNN
F 2 "Connector_PinSocket_2.54mm:PinSocket_1x04_P2.54mm_Vertical" H 5150 3200 50  0001 C CNN
F 3 "~" H 5150 3200 50  0001 C CNN
	1    5150 3200
	1    0    0    -1  
$EndComp
Wire Wire Line
	4800 3200 4950 3200
Wire Wire Line
	4950 3100 4800 3100
Wire Wire Line
	4950 3400 3300 3400
$Comp
L Device:R_PHOTO R3
U 1 1 5C52E9F4
P 9400 1550
F 0 "R3" H 9470 1596 50  0000 L CNN
F 1 "R_PHOTO" H 9470 1505 50  0000 L CNN
F 2 "Connector_PinSocket_2.54mm:PinSocket_1x02_P2.54mm_Vertical" V 9450 1300 50  0001 L CNN
F 3 "~" H 9400 1500 50  0001 C CNN
	1    9400 1550
	1    0    0    -1  
$EndComp
$Comp
L power:GND #PWR0101
U 1 1 5C52EDFC
P 4800 3200
F 0 "#PWR0101" H 4800 2950 50  0001 C CNN
F 1 "GND" V 4805 3072 50  0000 R CNN
F 2 "" H 4800 3200 50  0001 C CNN
F 3 "" H 4800 3200 50  0001 C CNN
	1    4800 3200
	0    1    1    0   
$EndComp
$Comp
L power:GND #PWR0102
U 1 1 5C52EF14
P 4800 2600
F 0 "#PWR0102" H 4800 2350 50  0001 C CNN
F 1 "GND" V 4805 2472 50  0000 R CNN
F 2 "" H 4800 2600 50  0001 C CNN
F 3 "" H 4800 2600 50  0001 C CNN
	1    4800 2600
	0    1    1    0   
$EndComp
$Comp
L power:+3.3V #PWR0103
U 1 1 5C52EF7E
P 4800 3100
F 0 "#PWR0103" H 4800 2950 50  0001 C CNN
F 1 "+3.3V" V 4815 3228 50  0000 L CNN
F 2 "" H 4800 3100 50  0001 C CNN
F 3 "" H 4800 3100 50  0001 C CNN
	1    4800 3100
	0    -1   -1   0   
$EndComp
$Comp
L power:+3.3V #PWR0104
U 1 1 5C52F161
P 4800 2500
F 0 "#PWR0104" H 4800 2350 50  0001 C CNN
F 1 "+3.3V" V 4815 2628 50  0000 L CNN
F 2 "" H 4800 2500 50  0001 C CNN
F 3 "" H 4800 2500 50  0001 C CNN
	1    4800 2500
	0    -1   -1   0   
$EndComp
$Comp
L power:+3.3V #PWR0105
U 1 1 5C52F364
P 9400 1700
F 0 "#PWR0105" H 9400 1550 50  0001 C CNN
F 1 "+3.3V" H 9415 1873 50  0000 C CNN
F 2 "" H 9400 1700 50  0001 C CNN
F 3 "" H 9400 1700 50  0001 C CNN
	1    9400 1700
	-1   0    0    1   
$EndComp
$Comp
L Device:R R2
U 1 1 5C52F4D9
P 9400 1150
F 0 "R2" H 9330 1104 50  0000 R CNN
F 1 "220" H 9330 1195 50  0000 R CNN
F 2 "Resistor_THT:R_Axial_DIN0207_L6.3mm_D2.5mm_P10.16mm_Horizontal" V 9330 1150 50  0001 C CNN
F 3 "~" H 9400 1150 50  0001 C CNN
	1    9400 1150
	-1   0    0    1   
$EndComp
$Comp
L power:GND #PWR0106
U 1 1 5C52F82D
P 9400 1000
F 0 "#PWR0106" H 9400 750 50  0001 C CNN
F 1 "GND" H 9405 827 50  0000 C CNN
F 2 "" H 9400 1000 50  0001 C CNN
F 3 "" H 9400 1000 50  0001 C CNN
	1    9400 1000
	-1   0    0    1   
$EndComp
$Comp
L Device:LED D1
U 1 1 5C5302E4
P 10050 1600
F 0 "D1" V 9995 1678 50  0000 L CNN
F 1 "LED" V 10086 1678 50  0000 L CNN
F 2 "Connector_PinSocket_2.54mm:PinSocket_1x02_P2.54mm_Vertical" H 10050 1600 50  0001 C CNN
F 3 "~" H 10050 1600 50  0001 C CNN
	1    10050 1600
	0    1    1    0   
$EndComp
Connection ~ 9400 1000
$Comp
L Device:R R1
U 1 1 5C530597
P 10050 2000
F 0 "R1" H 9980 1954 50  0000 R CNN
F 1 "51" H 9980 2045 50  0000 R CNN
F 2 "Resistor_THT:R_Axial_DIN0207_L6.3mm_D2.5mm_P10.16mm_Horizontal" V 9980 2000 50  0001 C CNN
F 3 "~" H 10050 2000 50  0001 C CNN
	1    10050 2000
	-1   0    0    1   
$EndComp
Wire Wire Line
	10050 1000 10050 1450
Wire Wire Line
	9400 1000 10050 1000
Wire Wire Line
	10050 1850 10050 1750
Wire Wire Line
	9400 1300 9400 1400
Text GLabel 10050 2150 3    50   Input ~ 0
ReflectieLed
Text GLabel 9400 1350 0    50   Input ~ 0
ReflectieLDR
Text GLabel 1550 2000 0    50   Input ~ 0
ReflectieLed
Text GLabel 3300 3500 2    50   Input ~ 0
ReflectieLDR
$Comp
L Connector:Conn_01x06_Female J3
U 1 1 5C534353
P 10200 3750
F 0 "J3" H 10227 3726 50  0000 L CNN
F 1 "Particle" H 10227 3635 50  0000 L CNN
F 2 "Connector_PinSocket_2.54mm:PinSocket_1x06_P2.54mm_Vertical" H 10200 3750 50  0001 C CNN
F 3 "~" H 10200 3750 50  0001 C CNN
	1    10200 3750
	1    0    0    -1  
$EndComp
$Comp
L power:GND #PWR0107
U 1 1 5C534594
P 3300 2000
F 0 "#PWR0107" H 3300 1750 50  0001 C CNN
F 1 "GND" V 3305 1872 50  0000 R CNN
F 2 "" H 3300 2000 50  0001 C CNN
F 3 "" H 3300 2000 50  0001 C CNN
	1    3300 2000
	0    -1   -1   0   
$EndComp
$Comp
L power:+3.3V #PWR0108
U 1 1 5C5345BF
P 1550 3900
F 0 "#PWR0108" H 1550 3750 50  0001 C CNN
F 1 "+3.3V" V 1565 4028 50  0000 L CNN
F 2 "" H 1550 3900 50  0001 C CNN
F 3 "" H 1550 3900 50  0001 C CNN
	1    1550 3900
	0    -1   -1   0   
$EndComp
$Comp
L power:+5V #PWR0109
U 1 1 5C53463C
P 1550 3700
F 0 "#PWR0109" H 1550 3550 50  0001 C CNN
F 1 "+5V" V 1565 3828 50  0000 L CNN
F 2 "" H 1550 3700 50  0001 C CNN
F 3 "" H 1550 3700 50  0001 C CNN
	1    1550 3700
	0    -1   -1   0   
$EndComp
$Comp
L power:GND #PWR0110
U 1 1 5C534779
P 1550 3800
F 0 "#PWR0110" H 1550 3550 50  0001 C CNN
F 1 "GND" V 1555 3672 50  0000 R CNN
F 2 "" H 1550 3800 50  0001 C CNN
F 3 "" H 1550 3800 50  0001 C CNN
	1    1550 3800
	0    1    1    0   
$EndComp
$Comp
L power:GND #PWR0111
U 1 1 5C5347BC
P 3300 2100
F 0 "#PWR0111" H 3300 1850 50  0001 C CNN
F 1 "GND" V 3305 1972 50  0000 R CNN
F 2 "" H 3300 2100 50  0001 C CNN
F 3 "" H 3300 2100 50  0001 C CNN
	1    3300 2100
	0    -1   -1   0   
$EndComp
$Comp
L power:GND #PWR0112
U 1 1 5C534A42
P 9000 3650
F 0 "#PWR0112" H 9000 3400 50  0001 C CNN
F 1 "GND" V 9005 3522 50  0000 R CNN
F 2 "" H 9000 3650 50  0001 C CNN
F 3 "" H 9000 3650 50  0001 C CNN
	1    9000 3650
	0    1    1    0   
$EndComp
Text GLabel 10000 3750 0    50   Input ~ 0
DustLed
$Comp
L power:+3.3V #PWR0113
U 1 1 5C535178
P 8650 3350
F 0 "#PWR0113" H 8650 3200 50  0001 C CNN
F 1 "+3.3V" V 8665 3478 50  0000 L CNN
F 2 "" H 8650 3350 50  0001 C CNN
F 3 "" H 8650 3350 50  0001 C CNN
	1    8650 3350
	0    -1   -1   0   
$EndComp
$Comp
L Device:R R4
U 1 1 5C53521A
P 9150 3350
F 0 "R4" V 8943 3350 50  0000 C CNN
F 1 "150" V 9034 3350 50  0000 C CNN
F 2 "Resistor_THT:R_Axial_DIN0207_L6.3mm_D2.5mm_P10.16mm_Horizontal" V 9080 3350 50  0001 C CNN
F 3 "~" H 9150 3350 50  0001 C CNN
	1    9150 3350
	0    1    1    0   
$EndComp
Text GLabel 10000 3950 0    50   Input ~ 0
DustOut
Text GLabel 3300 2900 2    50   Input ~ 0
DustOut
Text GLabel 3300 2600 2    50   Input ~ 0
DustLed
$Comp
L Connector:Conn_01x06_Female J4
U 1 1 5C52E127
P 5150 4000
F 0 "J4" H 5177 3976 50  0000 L CNN
F 1 "BMP280" H 5177 3885 50  0000 L CNN
F 2 "Connector_PinSocket_2.54mm:PinSocket_1x06_P2.54mm_Vertical" H 5150 4000 50  0001 C CNN
F 3 "~" H 5150 4000 50  0001 C CNN
	1    5150 4000
	1    0    0    -1  
$EndComp
$Comp
L power:+3.3V #PWR0114
U 1 1 5C52E4C6
P 4950 3800
F 0 "#PWR0114" H 4950 3650 50  0001 C CNN
F 1 "+3.3V" V 4965 3928 50  0000 L CNN
F 2 "" H 4950 3800 50  0001 C CNN
F 3 "" H 4950 3800 50  0001 C CNN
	1    4950 3800
	0    -1   -1   0   
$EndComp
$Comp
L power:GND #PWR0115
U 1 1 5C52E4E7
P 4950 3900
F 0 "#PWR0115" H 4950 3650 50  0001 C CNN
F 1 "GND" V 4955 3772 50  0000 R CNN
F 2 "" H 4950 3900 50  0001 C CNN
F 3 "" H 4950 3900 50  0001 C CNN
	1    4950 3900
	0    1    1    0   
$EndComp
Entry Wire Line
	4500 3900 4600 4000
Wire Wire Line
	4600 4000 4950 4000
Wire Wire Line
	4950 4100 4600 4100
Entry Wire Line
	4500 4000 4600 4100
Wire Bus Line
	4500 5450 1100 5450
Entry Wire Line
	1100 3300 1200 3400
Entry Wire Line
	1100 3200 1200 3300
Wire Wire Line
	1200 3400 1550 3400
Wire Wire Line
	1200 3300 1550 3300
Text Label 1400 3300 0    50   ~ 0
SCL
Text Label 1400 3400 0    50   ~ 0
SDA
Text Label 4600 4000 0    50   ~ 0
SCL
Text Label 4600 4100 0    50   ~ 0
SDA
$Comp
L Connector:Conn_01x02_Female J5
U 1 1 5C530F33
P 5150 2100
F 0 "J5" H 5178 2076 50  0000 L CNN
F 1 "Fan" H 5178 1985 50  0000 L CNN
F 2 "Connector_PinSocket_2.54mm:PinSocket_1x02_P2.54mm_Vertical" H 5150 2100 50  0001 C CNN
F 3 "~" H 5150 2100 50  0001 C CNN
	1    5150 2100
	1    0    0    -1  
$EndComp
Wire Wire Line
	3750 2200 4950 2200
$Comp
L power:GND #PWR0116
U 1 1 5C531621
P 4950 2100
F 0 "#PWR0116" H 4950 1850 50  0001 C CNN
F 1 "GND" V 4955 1972 50  0000 R CNN
F 2 "" H 4950 2100 50  0001 C CNN
F 3 "" H 4950 2100 50  0001 C CNN
	1    4950 2100
	0    1    1    0   
$EndComp
Wire Wire Line
	3750 3000 3300 3000
Wire Wire Line
	3750 2200 3750 3000
$Comp
L Device:CP C1
U 1 1 5C5868B2
P 9450 3500
F 0 "C1" H 9332 3454 50  0000 R CNN
F 1 "220u" H 9332 3545 50  0000 R CNN
F 2 "Capacitor_THT:CP_Radial_D6.3mm_P2.50mm" H 9488 3350 50  0001 C CNN
F 3 "~" H 9450 3500 50  0001 C CNN
	1    9450 3500
	-1   0    0    1   
$EndComp
Wire Wire Line
	10000 3650 9450 3650
Wire Wire Line
	10000 3850 9250 3850
Wire Wire Line
	9250 3850 9250 3650
Connection ~ 9250 3650
Wire Wire Line
	9250 3650 9000 3650
Connection ~ 9450 3650
Wire Wire Line
	9450 3650 9250 3650
Wire Wire Line
	9300 3350 9450 3350
Wire Wire Line
	9450 3350 9800 3350
Wire Wire Line
	9800 3350 9800 3550
Wire Wire Line
	9800 3550 10000 3550
Connection ~ 9450 3350
Wire Wire Line
	8650 3350 8700 3350
Wire Wire Line
	8700 3350 8700 4050
Wire Wire Line
	8700 4050 10000 4050
Connection ~ 8700 3350
Wire Wire Line
	8700 3350 9000 3350
$Comp
L Connector:Conn_01x04_Female J6
U 1 1 5C599779
P 8250 2100
F 0 "J6" H 8278 2126 50  0000 L CNN
F 1 "UART" H 8278 2035 50  0000 L CNN
F 2 "Connector_PinSocket_2.54mm:PinSocket_1x04_P2.54mm_Vertical" H 8250 2100 50  0001 C CNN
F 3 "~" H 8250 2100 50  0001 C CNN
	1    8250 2100
	1    0    0    -1  
$EndComp
$Comp
L power:GND #PWR0117
U 1 1 5C599A64
P 8050 2000
F 0 "#PWR0117" H 8050 1750 50  0001 C CNN
F 1 "GND" V 8055 1872 50  0000 R CNN
F 2 "" H 8050 2000 50  0001 C CNN
F 3 "" H 8050 2000 50  0001 C CNN
	1    8050 2000
	0    1    1    0   
$EndComp
Text GLabel 8050 2100 0    50   Input ~ 0
RX
Text GLabel 8050 2200 0    50   Input ~ 0
TX
Text GLabel 1550 2500 0    50   Input ~ 0
TX
Text GLabel 1550 2600 0    50   Input ~ 0
RX
$Comp
L power:GND #PWR0118
U 1 1 5C599F1F
P 5000 4300
F 0 "#PWR0118" H 5000 4050 50  0001 C CNN
F 1 "GND" V 5005 4172 50  0000 R CNN
F 2 "" H 5000 4300 50  0001 C CNN
F 3 "" H 5000 4300 50  0001 C CNN
	1    5000 4300
	0    1    1    0   
$EndComp
$Comp
L power:+5V #PWR0119
U 1 1 5C6E713F
P 8050 2300
F 0 "#PWR0119" H 8050 2150 50  0001 C CNN
F 1 "+5V" V 8065 2428 50  0000 L CNN
F 2 "" H 8050 2300 50  0001 C CNN
F 3 "" H 8050 2300 50  0001 C CNN
	1    8050 2300
	0    -1   -1   0   
$EndComp
$Comp
L Connector:Conn_01x05_Female J10
U 1 1 5C6E76C5
P 8250 2800
F 0 "J10" H 8278 2826 50  0000 L CNN
F 1 "Spi" H 8278 2735 50  0000 L CNN
F 2 "Connector_PinSocket_2.54mm:PinSocket_1x05_P2.54mm_Vertical" H 8250 2800 50  0001 C CNN
F 3 "~" H 8250 2800 50  0001 C CNN
	1    8250 2800
	1    0    0    -1  
$EndComp
Text GLabel 8050 2600 0    50   Input ~ 0
SCK
Text GLabel 8050 2700 0    50   Input ~ 0
MISO
Text GLabel 8050 2800 0    50   Input ~ 0
MOSI
$Comp
L power:+5V #PWR0120
U 1 1 5C6E9894
P 8050 3000
F 0 "#PWR0120" H 8050 2850 50  0001 C CNN
F 1 "+5V" V 8065 3128 50  0000 L CNN
F 2 "" H 8050 3000 50  0001 C CNN
F 3 "" H 8050 3000 50  0001 C CNN
	1    8050 3000
	0    -1   -1   0   
$EndComp
$Comp
L power:GND #PWR0121
U 1 1 5C6E98BB
P 8050 2900
F 0 "#PWR0121" H 8050 2650 50  0001 C CNN
F 1 "GND" V 8055 2772 50  0000 R CNN
F 2 "" H 8050 2900 50  0001 C CNN
F 3 "" H 8050 2900 50  0001 C CNN
	1    8050 2900
	0    1    1    0   
$EndComp
Wire Bus Line
	1100 3200 1100 5450
Wire Bus Line
	4500 3900 4500 5450
Text GLabel 1550 2300 0    50   Input ~ 0
MOSI
Text GLabel 1550 2200 0    50   Input ~ 0
MISO
Text GLabel 1550 2100 0    50   Input ~ 0
SCK
$EndSCHEMATC
