0:00:04.575573,laser aan
0:01:18.078429,laser hout start
0:01:38.038123,laser hout stop
0:02:29.408612,laser acryl start
0:02:52.886228,laser acryl stop
0:03:28.750036,laser uit
0:03:44.627748,afzuiging uit
