0:00:06.880201,laser aan
0:01:53.902994,laser hout start
0:02:14.307917,laser hout stop
0:02:54.501828,laser acryl start
0:03:14.870026,laser acryl stop
0:03:31.054628,laser uit
0:03:55.397449,afzuiging uit
