EESchema Schematic File Version 4
LIBS:platform_pcb-cache
EELAYER 29 0
EELAYER END
$Descr A4 11693 8268
encoding utf-8
Sheet 3 3
Title ""
Date ""
Rev ""
Comp ""
Comment1 ""
Comment2 ""
Comment3 ""
Comment4 ""
$EndDescr
Text GLabel 4150 3850 0    50   Input ~ 0
P0.11
Text GLabel 4150 3950 0    50   Input ~ 0
P0.12
Text GLabel 4150 3250 0    50   Input ~ 0
P0.02_AIN0
Text GLabel 4150 3350 0    50   Input ~ 0
P0.03_AIN1
Text GLabel 4150 3450 0    50   Input ~ 0
P0.04_AIN2
Text GLabel 4150 3550 0    50   Input ~ 0
P0.05_AIN3
Text GLabel 4150 3650 0    50   Input ~ 0
P0.06
Text GLabel 4150 3750 0    50   Input ~ 0
P0.07
Text GLabel 4700 2300 1    50   Input ~ 0
SWDCLK
Text GLabel 4800 2300 1    50   Input ~ 0
SWDIO
Text GLabel 5350 3550 2    50   Input ~ 0
P0.31_AIN7
Text GLabel 5350 3450 2    50   Input ~ 0
P0.30_AIN6
Text GLabel 5350 3350 2    50   Input ~ 0
P0.29_AIN5
Text GLabel 5350 3250 2    50   Input ~ 0
P0.28_AIN4
Wire Wire Line
	4150 3250 4250 3250
Wire Wire Line
	4150 3350 4250 3350
Wire Wire Line
	4150 3450 4250 3450
Wire Wire Line
	4150 3550 4250 3550
Wire Wire Line
	4150 3650 4250 3650
Wire Wire Line
	4150 3750 4250 3750
Wire Wire Line
	4150 3850 4250 3850
Wire Wire Line
	4150 3950 4250 3950
Wire Wire Line
	5350 3250 5200 3250
Wire Wire Line
	5350 3350 5200 3350
Wire Wire Line
	5200 3450 5350 3450
Wire Wire Line
	5350 3550 5200 3550
$Comp
L power:GND #PWR042
U 1 1 5CEE4FFC
P 4250 2850
F 0 "#PWR042" H 4250 2600 50  0001 C CNN
F 1 "GND" V 4255 2722 50  0000 R CNN
F 2 "" H 4250 2850 50  0001 C CNN
F 3 "" H 4250 2850 50  0001 C CNN
	1    4250 2850
	0    1    1    0   
$EndComp
$Comp
L power:+3.3V #PWR043
U 1 1 5CEE53DE
P 4250 2950
F 0 "#PWR043" H 4250 2800 50  0001 C CNN
F 1 "+3.3V" V 4265 3078 50  0000 L CNN
F 2 "" H 4250 2950 50  0001 C CNN
F 3 "" H 4250 2950 50  0001 C CNN
	1    4250 2950
	0    -1   -1   0   
$EndComp
$Comp
L power:GND #PWR044
U 1 1 5CEE6635
P 4250 3050
F 0 "#PWR044" H 4250 2800 50  0001 C CNN
F 1 "GND" V 4255 2922 50  0000 R CNN
F 2 "" H 4250 3050 50  0001 C CNN
F 3 "" H 4250 3050 50  0001 C CNN
	1    4250 3050
	0    1    1    0   
$EndComp
$Comp
L power:+3.3V #PWR045
U 1 1 5CEE663B
P 4250 3150
F 0 "#PWR045" H 4250 3000 50  0001 C CNN
F 1 "+3.3V" V 4265 3278 50  0000 L CNN
F 2 "" H 4250 3150 50  0001 C CNN
F 3 "" H 4250 3150 50  0001 C CNN
	1    4250 3150
	0    -1   -1   0   
$EndComp
$Comp
L power:GND #PWR050
U 1 1 5CEE7927
P 5200 4250
F 0 "#PWR050" H 5200 4000 50  0001 C CNN
F 1 "GND" V 5205 4122 50  0000 R CNN
F 2 "" H 5200 4250 50  0001 C CNN
F 3 "" H 5200 4250 50  0001 C CNN
	1    5200 4250
	0    -1   -1   0   
$EndComp
$Comp
L power:+3.3V #PWR049
U 1 1 5CEE792D
P 5200 4150
F 0 "#PWR049" H 5200 4000 50  0001 C CNN
F 1 "+3.3V" V 5215 4278 50  0000 L CNN
F 2 "" H 5200 4150 50  0001 C CNN
F 3 "" H 5200 4150 50  0001 C CNN
	1    5200 4150
	0    1    1    0   
$EndComp
$Comp
L power:GND #PWR047
U 1 1 5CEEE9D1
P 4600 2300
F 0 "#PWR047" H 4600 2050 50  0001 C CNN
F 1 "GND" V 4605 2172 50  0000 R CNN
F 2 "" H 4600 2300 50  0001 C CNN
F 3 "" H 4600 2300 50  0001 C CNN
	1    4600 2300
	-1   0    0    1   
$EndComp
$Comp
L power:+3.3V #PWR046
U 1 1 5CEEE9D7
P 4500 2300
F 0 "#PWR046" H 4500 2150 50  0001 C CNN
F 1 "+3.3V" V 4515 2428 50  0000 L CNN
F 2 "" H 4500 2300 50  0001 C CNN
F 3 "" H 4500 2300 50  0001 C CNN
	1    4500 2300
	1    0    0    -1  
$EndComp
$Comp
L Connector_Generic:Conn_01x04 J5
U 1 1 5CEEF22A
P 4700 2500
F 0 "J5" V 4572 2680 50  0000 L CNN
F 1 "Conn_01x04" V 4663 2680 50  0000 L CNN
F 2 "Connector_PinSocket_2.54mm:PinSocket_1x04_P2.54mm_Vertical" H 4700 2500 50  0001 C CNN
F 3 "~" H 4700 2500 50  0001 C CNN
	1    4700 2500
	0    1    1    0   
$EndComp
Text GLabel 5350 3150 2    50   Input ~ 0
P0.27
Text GLabel 5350 3050 2    50   Input ~ 0
P0.26
Text GLabel 5350 2950 2    50   Input ~ 0
P0.25
Wire Wire Line
	5200 3150 5350 3150
Wire Wire Line
	5350 3050 5200 3050
Wire Wire Line
	5200 2950 5350 2950
$Comp
L Connector_Generic:Conn_01x17 J6
U 1 1 5CEE2E23
P 5000 3650
F 0 "J6" H 4918 2625 50  0000 C CNN
F 1 "Conn_01x17" H 4918 2716 50  0000 C CNN
F 2 "Connector_PinSocket_2.54mm:PinSocket_1x17_P2.54mm_Vertical" H 5000 3650 50  0001 C CNN
F 3 "~" H 5000 3650 50  0001 C CNN
	1    5000 3650
	-1   0    0    1   
$EndComp
$Comp
L Connector_Generic:Conn_01x17 J4
U 1 1 5CEE1110
P 4450 3650
F 0 "J4" H 4530 3692 50  0000 L CNN
F 1 "Conn_01x17" H 4530 3601 50  0000 L CNN
F 2 "Connector_PinSocket_2.54mm:PinSocket_1x17_P2.54mm_Vertical" H 4450 3650 50  0001 C CNN
F 3 "~" H 4450 3650 50  0001 C CNN
	1    4450 3650
	1    0    0    -1  
$EndComp
$Comp
L power:+3.3V #PWR051
U 1 1 5CEE732E
P 5200 4350
F 0 "#PWR051" H 5200 4200 50  0001 C CNN
F 1 "+3.3V" V 5215 4478 50  0000 L CNN
F 2 "" H 5200 4350 50  0001 C CNN
F 3 "" H 5200 4350 50  0001 C CNN
	1    5200 4350
	0    1    1    0   
$EndComp
$Comp
L power:GND #PWR052
U 1 1 5CEE7328
P 5200 4450
F 0 "#PWR052" H 5200 4200 50  0001 C CNN
F 1 "GND" V 5205 4322 50  0000 R CNN
F 2 "" H 5200 4450 50  0001 C CNN
F 3 "" H 5200 4450 50  0001 C CNN
	1    5200 4450
	0    -1   -1   0   
$EndComp
Text GLabel 4250 4450 0    50   Input ~ 0
SCK
Text GLabel 4250 4350 0    50   Input ~ 0
MOSI
Text GLabel 4250 4250 0    50   Input ~ 0
MISO
Wire Wire Line
	4150 4150 4250 4150
Wire Wire Line
	4150 4050 4250 4050
Text GLabel 4150 4150 0    50   Input ~ 0
P0.14
Text GLabel 4150 4050 0    50   Input ~ 0
P0.13
Wire Wire Line
	5350 4050 5200 4050
Wire Wire Line
	5200 3950 5350 3950
Wire Wire Line
	5350 3850 5200 3850
Text GLabel 5350 3850 2    50   Input ~ 0
P0.17
Text GLabel 5350 3950 2    50   Input ~ 0
P0.16
Text GLabel 5350 4050 2    50   Input ~ 0
P0.15
Wire Wire Line
	5200 3750 5350 3750
Wire Wire Line
	5350 3650 5200 3650
Text GLabel 5350 3650 2    50   Input ~ 0
P0.19
Text GLabel 5350 3750 2    50   Input ~ 0
P0.18
$Comp
L power:GND #PWR048
U 1 1 5D0AD05B
P 5200 2850
F 0 "#PWR048" H 5200 2600 50  0001 C CNN
F 1 "GND" V 5205 2722 50  0000 R CNN
F 2 "" H 5200 2850 50  0001 C CNN
F 3 "" H 5200 2850 50  0001 C CNN
	1    5200 2850
	0    -1   -1   0   
$EndComp
$EndSCHEMATC
