EESchema Schematic File Version 4
LIBS:platform_pcb-cache
EELAYER 29 0
EELAYER END
$Descr A4 11693 8268
encoding utf-8
Sheet 1 3
Title ""
Date ""
Rev ""
Comp ""
Comment1 ""
Comment2 ""
Comment3 ""
Comment4 ""
$EndDescr
$Comp
L power:GND #PWR017
U 1 1 5CCFFA63
P 4950 5800
F 0 "#PWR017" H 4950 5550 50  0001 C CNN
F 1 "GND" H 4955 5627 50  0000 C CNN
F 2 "" H 4950 5800 50  0001 C CNN
F 3 "" H 4950 5800 50  0001 C CNN
	1    4950 5800
	0    1    1    0   
$EndComp
Wire Wire Line
	4950 5800 5050 5800
Wire Wire Line
	5150 5700 5050 5700
Wire Wire Line
	5050 5700 5050 5800
Connection ~ 5050 5800
Wire Wire Line
	5050 5800 5150 5800
Wire Wire Line
	5050 5800 5050 5900
Wire Wire Line
	5050 5900 5150 5900
$Comp
L Device:Antenna AE1
U 1 1 5CD03043
P 6050 6650
F 0 "AE1" V 6004 6780 50  0000 L CNN
F 1 "LoRaWAN Antenna" V 6095 6780 50  0000 L CNN
F 2 "Connector_Coaxial:U.FL_Molex_MCRF_73412-0110_Vertical" H 6050 6650 50  0001 C CNN
F 3 "~" H 6050 6650 50  0001 C CNN
F 4 "lcsc" H 6050 6650 50  0001 C CNN "Shop"
F 5 "https://lcsc.com/product-detail/_Hirose_U-FL-R-SMT-1-80_Hirose-HRS-U-FL-R-SMT-1-80_C88374.html" H 6050 6650 50  0001 C CNN "ShopUrl"
	1    6050 6650
	-1   0    0    1   
$EndComp
Wire Wire Line
	6050 6450 6050 6300
$Comp
L rf:RFM95W-868S2 U2
U 1 1 5CD1C381
P 5750 5800
F 0 "U2" H 5750 6481 50  0000 C CNN
F 1 "RFM95W-868S2" H 5750 6390 50  0000 C CNN
F 2 "RF_Module:HOPERF_RFM9XW_SMD" H 2450 7450 50  0001 C CNN
F 3 "http://www.hoperf.com/upload/rf/RFM95_96_97_98W.pdf" H 2450 7450 50  0001 C CNN
	1    5750 5800
	0    1    1    0   
$EndComp
$Sheet
S 2950 5350 1050 950 
U 5CD207E7
F0 "PowerSupply" 50
F1 "power_supply.sch" 50
F2 "3.3V" I R 4000 5800 50 
F3 "GND" I L 2950 5750 50 
F4 "Vin" I L 2950 5900 50 
F5 "PG" I R 4000 5950 50 
F6 "STAT1" I R 4000 6050 50 
F7 "STAT2" I R 4000 6150 50 
$EndSheet
$Comp
L power:+3.3V #PWR020
U 1 1 5CD103C4
P 6250 5800
F 0 "#PWR020" H 6250 5650 50  0001 C CNN
F 1 "+3.3V" H 6265 5973 50  0000 C CNN
F 2 "" H 6250 5800 50  0001 C CNN
F 3 "" H 6250 5800 50  0001 C CNN
	1    6250 5800
	0    1    1    0   
$EndComp
$Comp
L Connector:USB_C_Receptacle_USB2.0 J?
U 1 1 5CD3B662
P 1550 6500
AR Path="/5CD207E7/5CD3B662" Ref="J?"  Part="1" 
AR Path="/5CD3B662" Ref="J1"  Part="1" 
F 0 "J1" H 1657 7367 50  0000 C CNN
F 1 "USB_C_Receptacle_USB2.0" H 1657 7276 50  0000 C CNN
F 2 "Connector_USB:USB_C_Receptacle_GCT_USB4085" H 1700 6500 50  0001 C CNN
F 3 "https://www.usb.org/sites/default/files/documents/usb_type-c.zip" H 1700 6500 50  0001 C CNN
	1    1550 6500
	1    0    0    -1  
$EndComp
$Comp
L power:GND #PWR?
U 1 1 5CD3B66E
P 1250 7450
AR Path="/5CD207E7/5CD3B66E" Ref="#PWR?"  Part="1" 
AR Path="/5CD3B66E" Ref="#PWR01"  Part="1" 
F 0 "#PWR01" H 1250 7200 50  0001 C CNN
F 1 "GND" H 1255 7277 50  0000 C CNN
F 2 "" H 1250 7450 50  0001 C CNN
F 3 "" H 1250 7450 50  0001 C CNN
	1    1250 7450
	1    0    0    -1  
$EndComp
$Comp
L Device:R_Small R?
U 1 1 5CD3B674
P 2400 6100
AR Path="/5CD207E7/5CD3B674" Ref="R?"  Part="1" 
AR Path="/5CD3B674" Ref="R1"  Part="1" 
F 0 "R1" V 2204 6100 50  0000 C CNN
F 1 "5.11k" V 2295 6100 50  0000 C CNN
F 2 "Resistor_SMD:R_0603_1608Metric_Pad1.05x0.95mm_HandSolder" H 2400 6100 50  0001 C CNN
F 3 "~" H 2400 6100 50  0001 C CNN
	1    2400 6100
	0    1    1    0   
$EndComp
$Comp
L Device:R_Small R?
U 1 1 5CD3B67A
P 2400 6200
AR Path="/5CD207E7/5CD3B67A" Ref="R?"  Part="1" 
AR Path="/5CD3B67A" Ref="R2"  Part="1" 
F 0 "R2" V 2504 6200 50  0000 C CNN
F 1 "5.11k" V 2595 6200 50  0000 C CNN
F 2 "Resistor_SMD:R_0603_1608Metric_Pad1.05x0.95mm_HandSolder" H 2400 6200 50  0001 C CNN
F 3 "~" H 2400 6200 50  0001 C CNN
	1    2400 6200
	0    1    1    0   
$EndComp
Wire Wire Line
	2150 6100 2300 6100
Wire Wire Line
	2300 6200 2150 6200
$Comp
L power:GND #PWR?
U 1 1 5CD3B682
P 2750 6300
AR Path="/5CD207E7/5CD3B682" Ref="#PWR?"  Part="1" 
AR Path="/5CD3B682" Ref="#PWR04"  Part="1" 
F 0 "#PWR04" H 2750 6050 50  0001 C CNN
F 1 "GND" H 2755 6127 50  0000 C CNN
F 2 "" H 2750 6300 50  0001 C CNN
F 3 "" H 2750 6300 50  0001 C CNN
	1    2750 6300
	1    0    0    -1  
$EndComp
Wire Wire Line
	2500 6200 2750 6200
Wire Wire Line
	2500 6100 2750 6100
Wire Wire Line
	2750 6100 2750 6200
Connection ~ 2750 6200
Wire Wire Line
	2750 6200 2750 6300
$Comp
L power:+3.3V #PWR014
U 1 1 5CD49968
P 4100 5800
F 0 "#PWR014" H 4100 5650 50  0001 C CNN
F 1 "+3.3V" V 4115 5928 50  0000 L CNN
F 2 "" H 4100 5800 50  0001 C CNN
F 3 "" H 4100 5800 50  0001 C CNN
	1    4100 5800
	0    1    1    0   
$EndComp
$Comp
L Device:C_Small C1
U 1 1 5CD2D796
P 2800 2000
F 0 "C1" V 3029 2000 50  0000 C CNN
F 1 "12pF" V 2938 2000 50  0000 C CNN
F 2 "Capacitor_SMD:C_0603_1608Metric_Pad1.05x0.95mm_HandSolder" H 2800 2000 50  0001 C CNN
F 3 "~" H 2800 2000 50  0001 C CNN
	1    2800 2000
	0    -1   -1   0   
$EndComp
$Comp
L Device:C_Small C2
U 1 1 5CD2E1FE
P 2800 2300
F 0 "C2" V 2663 2300 50  0000 C CNN
F 1 "12pF" V 2572 2300 50  0000 C CNN
F 2 "Capacitor_SMD:C_0603_1608Metric_Pad1.05x0.95mm_HandSolder" H 2800 2300 50  0001 C CNN
F 3 "~" H 2800 2300 50  0001 C CNN
	1    2800 2300
	0    -1   -1   0   
$EndComp
$Comp
L Device:Crystal Y1
U 1 1 5CD2ED39
P 3150 2150
F 0 "Y1" V 3104 2281 50  0000 L CNN
F 1 "32.768kHz" V 3195 2281 50  0000 L CNN
F 2 "Crystal:Crystal_SMD_3215-2Pin_3.2x1.5mm" H 3150 2150 50  0001 C CNN
F 3 "~" H 3150 2150 50  0001 C CNN
F 4 "lcsc" H 3150 2150 50  0001 C CNN "Shop"
F 5 "https://lcsc.com/product-detail/SMD-Crystals_SMD-3215-2P-32-768KHZ-12-5PF-10PPM_C164062.html" H 3150 2150 50  0001 C CNN "ShopUrl"
	1    3150 2150
	0    1    1    0   
$EndComp
Wire Wire Line
	2900 2000 3150 2000
Wire Wire Line
	2900 2300 3150 2300
Wire Wire Line
	2700 2000 2550 2000
Wire Wire Line
	2550 2000 2550 2300
Wire Wire Line
	2550 2300 2700 2300
Wire Wire Line
	3150 2000 3750 2000
Wire Wire Line
	3750 2000 3750 2350
Wire Wire Line
	3750 2350 4000 2350
Connection ~ 3150 2000
Wire Wire Line
	4000 2450 3650 2450
Wire Wire Line
	3650 2450 3650 2300
Wire Wire Line
	3650 2300 3150 2300
Connection ~ 3150 2300
$Comp
L power:GND #PWR03
U 1 1 5CD30E13
P 2550 2550
F 0 "#PWR03" H 2550 2300 50  0001 C CNN
F 1 "GND" H 2555 2377 50  0000 C CNN
F 2 "" H 2550 2550 50  0001 C CNN
F 3 "" H 2550 2550 50  0001 C CNN
	1    2550 2550
	1    0    0    -1  
$EndComp
Wire Wire Line
	2550 2300 2550 2550
Connection ~ 2550 2300
$Comp
L Device:C_Small C5
U 1 1 5CD31854
P 3800 1900
F 0 "C5" H 3892 1946 50  0000 L CNN
F 1 "100nF" H 3892 1855 50  0000 L CNN
F 2 "Capacitor_SMD:C_0603_1608Metric_Pad1.05x0.95mm_HandSolder" H 3800 1900 50  0001 C CNN
F 3 "~" H 3800 1900 50  0001 C CNN
	1    3800 1900
	1    0    0    -1  
$EndComp
$Comp
L power:GND #PWR09
U 1 1 5CD3257D
P 3550 1800
F 0 "#PWR09" H 3550 1550 50  0001 C CNN
F 1 "GND" H 3555 1627 50  0000 C CNN
F 2 "" H 3550 1800 50  0001 C CNN
F 3 "" H 3550 1800 50  0001 C CNN
	1    3550 1800
	0    1    1    0   
$EndComp
Wire Wire Line
	3800 2000 3800 2250
Wire Wire Line
	3550 1800 3800 1800
$Comp
L Device:C_Small C8
U 1 1 5CD34185
P 4700 550
F 0 "C8" H 4792 596 50  0000 L CNN
F 1 "1.0uF" H 4792 505 50  0000 L CNN
F 2 "Capacitor_SMD:C_0603_1608Metric_Pad1.05x0.95mm_HandSolder" H 4700 550 50  0001 C CNN
F 3 "~" H 4700 550 50  0001 C CNN
	1    4700 550 
	1    0    0    -1  
$EndComp
$Comp
L power:GND #PWR016
U 1 1 5CD35A4E
P 4850 700
F 0 "#PWR016" H 4850 450 50  0001 C CNN
F 1 "GND" H 4855 527 50  0000 C CNN
F 2 "" H 4850 700 50  0001 C CNN
F 3 "" H 4850 700 50  0001 C CNN
	1    4850 700 
	0    -1   -1   0   
$EndComp
Wire Wire Line
	4700 700  4850 700 
Connection ~ 4700 700 
Wire Wire Line
	4700 700  4700 650 
$Comp
L Device:Crystal Y2
U 1 1 5CD367C8
P 7750 2000
F 0 "Y2" V 7704 2131 50  0000 L CNN
F 1 "32MHz" V 7795 2131 50  0000 L CNN
F 2 "Crystal:Crystal_SMD_3225-4Pin_3.2x2.5mm_HandSoldering" H 7750 2000 50  0001 C CNN
F 3 "~" H 7750 2000 50  0001 C CNN
F 4 "lcsc" H 7750 2000 50  0001 C CNN "Shop"
F 5 "https://lcsc.com/product-detail/_SMD-3225-4P32MHZ-20PF-10PPM-40-85_C164054.html" H 7750 2000 50  0001 C CNN "ShopUrl"
	1    7750 2000
	0    1    1    0   
$EndComp
$Comp
L Device:C_Small C13
U 1 1 5CD36F81
P 8150 1850
F 0 "C13" V 8379 1850 50  0000 C CNN
F 1 "12pF" V 8288 1850 50  0000 C CNN
F 2 "Capacitor_SMD:C_0603_1608Metric_Pad1.05x0.95mm_HandSolder" H 8150 1850 50  0001 C CNN
F 3 "~" H 8150 1850 50  0001 C CNN
	1    8150 1850
	0    -1   -1   0   
$EndComp
$Comp
L Device:C_Small C14
U 1 1 5CD3784C
P 8150 2150
F 0 "C14" V 8013 2150 50  0000 C CNN
F 1 "12pF" V 7922 2150 50  0000 C CNN
F 2 "Capacitor_SMD:C_0603_1608Metric_Pad1.05x0.95mm_HandSolder" H 8150 2150 50  0001 C CNN
F 3 "~" H 8150 2150 50  0001 C CNN
	1    8150 2150
	0    -1   -1   0   
$EndComp
Wire Wire Line
	7750 1850 8050 1850
Wire Wire Line
	8250 1850 8300 1850
Wire Wire Line
	8300 1850 8300 2150
Wire Wire Line
	8300 2150 8250 2150
Wire Wire Line
	7750 2150 8050 2150
Connection ~ 7750 2150
Connection ~ 7750 1850
$Comp
L power:GND #PWR024
U 1 1 5CD3D86A
P 8400 2150
F 0 "#PWR024" H 8400 1900 50  0001 C CNN
F 1 "GND" H 8405 1977 50  0000 C CNN
F 2 "" H 8400 2150 50  0001 C CNN
F 3 "" H 8400 2150 50  0001 C CNN
	1    8400 2150
	1    0    0    -1  
$EndComp
Wire Wire Line
	8300 2150 8400 2150
Connection ~ 8300 2150
$Comp
L Device:C_Small C10
U 1 1 5CD4335E
P 7500 3250
F 0 "C10" H 7592 3296 50  0000 L CNN
F 1 "12pF" H 7592 3205 50  0000 L CNN
F 2 "Capacitor_SMD:C_0603_1608Metric_Pad1.05x0.95mm_HandSolder" H 7500 3250 50  0001 C CNN
F 3 "~" H 7500 3250 50  0001 C CNN
	1    7500 3250
	1    0    0    -1  
$EndComp
$Comp
L Device:L_Small L1
U 1 1 5CD4625C
P 7850 3150
F 0 "L1" V 7669 3150 50  0000 C CNN
F 1 "3.9nH" V 7760 3150 50  0000 C CNN
F 2 "Inductor_SMD:L_0603_1608Metric_Pad1.05x0.95mm_HandSolder" H 7850 3150 50  0001 C CNN
F 3 "~" H 7850 3150 50  0001 C CNN
	1    7850 3150
	0    1    1    0   
$EndComp
Wire Wire Line
	7500 3150 7750 3150
$Comp
L Device:Antenna AE2
U 1 1 5CD47BAB
P 8250 3150
F 0 "AE2" V 8204 3280 50  0000 L CNN
F 1 "2.4GHz" V 8295 3280 50  0000 L CNN
F 2 "Connector_Coaxial:U.FL_Molex_MCRF_73412-0110_Vertical" H 8250 3150 50  0001 C CNN
F 3 "~" H 8250 3150 50  0001 C CNN
F 4 "lcsc" H 8250 3150 50  0001 C CNN "Shop"
F 5 "https://lcsc.com/product-detail/_Hirose_U-FL-R-SMT-1-80_Hirose-HRS-U-FL-R-SMT-1-80_C88374.html" H 8250 3150 50  0001 C CNN "ShopUrl"
	1    8250 3150
	0    1    1    0   
$EndComp
Wire Wire Line
	7950 3150 8050 3150
$Comp
L power:+3.3V #PWR012
U 1 1 5CD48D49
P 4000 950
F 0 "#PWR012" H 4000 800 50  0001 C CNN
F 1 "+3.3V" V 4015 1078 50  0000 L CNN
F 2 "" H 4000 950 50  0001 C CNN
F 3 "" H 4000 950 50  0001 C CNN
	1    4000 950 
	1    0    0    -1  
$EndComp
$Comp
L Device:C_Small C6
U 1 1 5CD4A807
P 4000 1150
F 0 "C6" H 4092 1196 50  0000 L CNN
F 1 "4.7uF" H 4092 1105 50  0000 L CNN
F 2 "Capacitor_SMD:C_0603_1608Metric_Pad1.05x0.95mm_HandSolder" H 4000 1150 50  0001 C CNN
F 3 "~" H 4000 1150 50  0001 C CNN
	1    4000 1150
	1    0    0    -1  
$EndComp
$Comp
L power:GND #PWR013
U 1 1 5CD4E810
P 4000 1350
F 0 "#PWR013" H 4000 1100 50  0001 C CNN
F 1 "GND" H 4005 1177 50  0000 C CNN
F 2 "" H 4000 1350 50  0001 C CNN
F 3 "" H 4000 1350 50  0001 C CNN
	1    4000 1350
	1    0    0    -1  
$EndComp
Wire Wire Line
	4000 1250 4000 1300
Wire Wire Line
	4000 1300 4300 1300
Wire Wire Line
	4300 1300 4300 1350
Connection ~ 4000 1300
Wire Wire Line
	4000 1300 4000 1350
Wire Wire Line
	4000 1050 4000 1000
Wire Wire Line
	4000 1000 4400 1000
Wire Wire Line
	4400 1000 4400 1350
Connection ~ 4000 1000
Wire Wire Line
	4000 1000 4000 950 
Wire Wire Line
	7500 3400 7500 3350
Wire Wire Line
	7500 3450 7500 3400
Connection ~ 7500 3400
$Comp
L Device:C_Small C9
U 1 1 5CD58C4C
P 6200 1950
F 0 "C9" V 6429 1950 50  0000 C CNN
F 1 "100nF" V 6338 1950 50  0000 C CNN
F 2 "Capacitor_SMD:C_0603_1608Metric_Pad1.05x0.95mm_HandSolder" H 6200 1950 50  0001 C CNN
F 3 "~" H 6200 1950 50  0001 C CNN
	1    6200 1950
	0    -1   -1   0   
$EndComp
$Comp
L power:GND #PWR021
U 1 1 5CD59C07
P 6400 1950
F 0 "#PWR021" H 6400 1700 50  0001 C CNN
F 1 "GND" H 6405 1777 50  0000 C CNN
F 2 "" H 6400 1950 50  0001 C CNN
F 3 "" H 6400 1950 50  0001 C CNN
	1    6400 1950
	0    -1   -1   0   
$EndComp
$Comp
L power:+3.3V #PWR019
U 1 1 5CD59F58
P 5950 1800
F 0 "#PWR019" H 5950 1650 50  0001 C CNN
F 1 "+3.3V" V 5965 1928 50  0000 L CNN
F 2 "" H 5950 1800 50  0001 C CNN
F 3 "" H 5950 1800 50  0001 C CNN
	1    5950 1800
	1    0    0    -1  
$EndComp
$Comp
L Device:C_Small C7
U 1 1 5CD5F43C
P 4150 4500
F 0 "C7" V 3921 4500 50  0000 C CNN
F 1 "100nF" V 4012 4500 50  0000 C CNN
F 2 "Capacitor_SMD:C_0603_1608Metric_Pad1.05x0.95mm_HandSolder" H 4150 4500 50  0001 C CNN
F 3 "~" H 4150 4500 50  0001 C CNN
	1    4150 4500
	0    1    1    0   
$EndComp
$Comp
L power:GND #PWR010
U 1 1 5CD5FB7A
P 3900 4500
F 0 "#PWR010" H 3900 4250 50  0001 C CNN
F 1 "GND" H 3905 4327 50  0000 C CNN
F 2 "" H 3900 4500 50  0001 C CNN
F 3 "" H 3900 4500 50  0001 C CNN
	1    3900 4500
	0    1    1    0   
$EndComp
$Comp
L power:+3.3V #PWR015
U 1 1 5CD6015A
P 4300 4600
F 0 "#PWR015" H 4300 4450 50  0001 C CNN
F 1 "+3.3V" V 4315 4728 50  0000 L CNN
F 2 "" H 4300 4600 50  0001 C CNN
F 3 "" H 4300 4600 50  0001 C CNN
	1    4300 4600
	-1   0    0    1   
$EndComp
Wire Wire Line
	4300 4500 4250 4500
Wire Wire Line
	4300 4500 4300 4600
Wire Wire Line
	3900 4500 4050 4500
Wire Wire Line
	7150 3400 7500 3400
Wire Wire Line
	7250 3150 7500 3150
Connection ~ 7500 3150
Wire Wire Line
	5800 2450 7050 2450
Wire Wire Line
	7050 2450 7050 2150
Wire Wire Line
	7050 2150 7750 2150
Wire Wire Line
	6900 1850 6900 2350
Wire Wire Line
	6900 2350 5800 2350
Wire Wire Line
	6900 1850 7750 1850
Wire Wire Line
	5950 2250 5950 1950
Wire Wire Line
	5950 1950 6100 1950
Connection ~ 5950 1950
Wire Wire Line
	5950 1950 5950 1800
Wire Wire Line
	6400 1950 6300 1950
$Comp
L Device:C_Small C11
U 1 1 5CD4920E
P 7600 2400
F 0 "C11" V 7463 2400 50  0000 C CNN
F 1 "100pF" V 7372 2400 50  0000 C CNN
F 2 "Capacitor_SMD:C_0603_1608Metric_Pad1.05x0.95mm_HandSolder" H 7600 2400 50  0001 C CNN
F 3 "~" H 7600 2400 50  0001 C CNN
	1    7600 2400
	0    -1   -1   0   
$EndComp
$Comp
L Device:C_Small C12
U 1 1 5CD49B83
P 7600 2750
F 0 "C12" V 7463 2750 50  0000 C CNN
F 1 "N.C." V 7372 2750 50  0000 C CNN
F 2 "Capacitor_SMD:C_0603_1608Metric_Pad1.05x0.95mm_HandSolder" H 7600 2750 50  0001 C CNN
F 3 "~" H 7600 2750 50  0001 C CNN
	1    7600 2750
	0    -1   -1   0   
$EndComp
$Comp
L power:GND #PWR023
U 1 1 5CD49FD1
P 8100 2750
F 0 "#PWR023" H 8100 2500 50  0001 C CNN
F 1 "GND" H 8105 2577 50  0000 C CNN
F 2 "" H 8100 2750 50  0001 C CNN
F 3 "" H 8100 2750 50  0001 C CNN
	1    8100 2750
	1    0    0    -1  
$EndComp
Wire Wire Line
	5800 2550 7200 2550
Wire Wire Line
	7200 2550 7200 2400
Wire Wire Line
	7200 2400 7500 2400
Wire Wire Line
	7700 2400 7950 2400
Wire Wire Line
	7950 2400 7950 2750
Wire Wire Line
	7950 2750 7700 2750
Wire Wire Line
	7950 2750 8100 2750
Connection ~ 7950 2750
Wire Wire Line
	7200 2750 7200 2650
Wire Wire Line
	7200 2650 5800 2650
Wire Wire Line
	7200 2750 7500 2750
Wire Wire Line
	5800 2750 7150 2750
Wire Wire Line
	7150 2750 7150 3400
Wire Wire Line
	7250 3150 7250 2850
Wire Wire Line
	7250 2850 5800 2850
$Comp
L power:GND #PWR?
U 1 1 5CDBFF22
P 2900 5750
AR Path="/5CD207E7/5CDBFF22" Ref="#PWR?"  Part="1" 
AR Path="/5CDBFF22" Ref="#PWR08"  Part="1" 
F 0 "#PWR08" H 2900 5500 50  0001 C CNN
F 1 "GND" H 2905 5577 50  0000 C CNN
F 2 "" H 2900 5750 50  0001 C CNN
F 3 "" H 2900 5750 50  0001 C CNN
	1    2900 5750
	0    1    1    0   
$EndComp
Wire Wire Line
	5800 2950 6150 2950
Wire Wire Line
	5800 3050 6150 3050
Wire Wire Line
	5800 3150 6150 3150
Entry Wire Line
	6150 2950 6250 3050
Entry Wire Line
	6150 3050 6250 3150
Entry Wire Line
	6150 3150 6250 3250
Wire Wire Line
	5300 4350 5300 5200
Text Label 5800 2950 0    50   ~ 0
MISO
Text Label 5800 3050 0    50   ~ 0
MOSI
Text Label 5800 3150 0    50   ~ 0
SCK
Wire Wire Line
	5850 5050 5850 5300
Wire Wire Line
	5950 5050 5950 5300
Wire Wire Line
	6050 5050 6050 5300
Text Label 5850 5300 1    50   ~ 0
SCK
Text Label 5950 5300 1    50   ~ 0
MISO
Text Label 6050 5300 1    50   ~ 0
MOSI
$Comp
L Device:LED_ARGB D1
U 1 1 5CE3314E
P 3000 3500
F 0 "D1" H 3000 3033 50  0000 C CNN
F 1 "LED_ARGB" H 3000 3124 50  0000 C CNN
F 2 "RGB_Led:LED_2020_4pin" H 3000 3450 50  0001 C CNN
F 3 "~" H 3000 3450 50  0001 C CNN
F 4 "lcsc" H 3000 3500 50  0001 C CNN "Shop"
F 5 "https://lcsc.com/product-detail/Light-Emitting-Diodes-LED_FM-B2020RGBA-HG_C108793.html" H 3000 3500 50  0001 C CNN "ShopUrl"
	1    3000 3500
	-1   0    0    1   
$EndComp
$Comp
L Device:R_Small R?
U 1 1 5CE38857
P 3550 3700
AR Path="/5CD207E7/5CE38857" Ref="R?"  Part="1" 
AR Path="/5CE38857" Ref="R5"  Part="1" 
F 0 "R5" V 3654 3700 50  0000 C CNN
F 1 "1.2K" V 3745 3700 50  0000 C CNN
F 2 "Resistor_SMD:R_0603_1608Metric_Pad1.05x0.95mm_HandSolder" H 3550 3700 50  0001 C CNN
F 3 "~" H 3550 3700 50  0001 C CNN
	1    3550 3700
	0    1    1    0   
$EndComp
$Comp
L Device:R_Small R?
U 1 1 5CE39357
P 3550 3500
AR Path="/5CD207E7/5CE39357" Ref="R?"  Part="1" 
AR Path="/5CE39357" Ref="R4"  Part="1" 
F 0 "R4" V 3450 3500 50  0000 C CNN
F 1 "1.2K" V 3650 3500 50  0000 C CNN
F 2 "Resistor_SMD:R_0603_1608Metric_Pad1.05x0.95mm_HandSolder" H 3550 3500 50  0001 C CNN
F 3 "~" H 3550 3500 50  0001 C CNN
	1    3550 3500
	0    1    1    0   
$EndComp
Wire Wire Line
	3200 3700 3450 3700
Wire Wire Line
	3450 3500 3200 3500
Wire Wire Line
	3200 3300 3450 3300
$Comp
L power:+3.3V #PWR05
U 1 1 5CE4BCFB
P 2800 3500
F 0 "#PWR05" H 2800 3350 50  0001 C CNN
F 1 "+3.3V" V 2815 3628 50  0000 L CNN
F 2 "" H 2800 3500 50  0001 C CNN
F 3 "" H 2800 3500 50  0001 C CNN
	1    2800 3500
	0    -1   -1   0   
$EndComp
Wire Wire Line
	3800 2250 4000 2250
$Comp
L nrf:nRF52811-QFAA-R7 IC1
U 1 1 5CD25ADD
P 4000 2250
F 0 "IC1" V 4900 1550 50  0000 R CNN
F 1 "nRF52811-QFAA-R7" V 5000 2200 50  0000 R CNN
F 2 "QFN40P600X600X90-49N" H 5650 2950 50  0001 L CNN
F 3 "https://infocenter.nordicsemi.com/index.jsp?topic=%2Fstruct_nrf52%2Fstruct%2Fnrf52811.html" H 5650 2850 50  0001 L CNN
F 4 "RF System on a Chip - SoC Bluetooth 5.1 Multiprotocal" H 5650 2750 50  0001 L CNN "Description"
F 5 "0.9" H 5650 2650 50  0001 L CNN "Height"
F 6 "Nordic Semiconductor" H 5650 2550 50  0001 L CNN "Manufacturer_Name"
F 7 "nRF52811-QFAA-R7" H 5650 2450 50  0001 L CNN "Manufacturer_Part_Number"
	1    4000 2250
	1    0    0    -1  
$EndComp
$Sheet
S 9850 5250 850  650 
U 5CEAA948
F0 "PINS" 50
F1 "Pins.sch" 50
$EndSheet
Text GLabel 5800 3350 2    50   Input ~ 0
SWDCLK
Text GLabel 5800 3250 2    50   Input ~ 0
SWDIO
Text GLabel 4400 4400 3    50   Input ~ 0
P0.11
Text GLabel 4500 4400 3    50   Input ~ 0
P0.12
Text GLabel 4600 4400 3    50   Input ~ 0
P0.13
Text GLabel 4700 4400 3    50   Input ~ 0
P0.14
Text GLabel 4800 4400 3    50   Input ~ 0
P0.15
Text GLabel 4900 4400 3    50   Input ~ 0
P0.16
Text GLabel 5000 4400 3    50   Input ~ 0
P0.17
Text GLabel 3950 2550 0    50   Input ~ 0
P0.02_AIN0
Text GLabel 3950 2650 0    50   Input ~ 0
P0.03_AIN1
Text GLabel 3950 2750 0    50   Input ~ 0
P0.04_AIN2
Text GLabel 3950 2850 0    50   Input ~ 0
P0.05_AIN3
Text GLabel 3950 2950 0    50   Input ~ 0
P0.06
Text GLabel 3950 3050 0    50   Input ~ 0
P0.07
Text GLabel 4900 1300 1    50   Input ~ 0
P0.31_AIN7
Text GLabel 5000 1300 1    50   Input ~ 0
P0.30_AIN6
Text GLabel 5100 1300 1    50   Input ~ 0
P0.29_AIN5
Text GLabel 5200 1300 1    50   Input ~ 0
P0.28_AIN4
Text GLabel 5300 1300 1    50   Input ~ 0
P0.27
Wire Wire Line
	4600 450  4700 450 
Wire Wire Line
	4600 450  4600 1350
Wire Wire Line
	4700 700  4700 1350
Entry Wire Line
	5950 4950 6050 5050
Entry Wire Line
	5850 4950 5950 5050
Entry Wire Line
	5750 4950 5850 5050
$Comp
L Device:R_Small R?
U 1 1 5CE3971A
P 3550 3300
AR Path="/5CD207E7/5CE3971A" Ref="R?"  Part="1" 
AR Path="/5CE3971A" Ref="R3"  Part="1" 
F 0 "R3" V 3354 3300 50  0000 C CNN
F 1 "1.2K" V 3445 3300 50  0000 C CNN
F 2 "Resistor_SMD:R_0603_1608Metric_Pad1.05x0.95mm_HandSolder" H 3550 3300 50  0001 C CNN
F 3 "~" H 3550 3300 50  0001 C CNN
	1    3550 3300
	0    1    1    0   
$EndComp
Wire Wire Line
	2150 6400 2250 6400
Wire Wire Line
	2250 6400 2250 6500
Wire Wire Line
	2250 6500 2150 6500
Wire Wire Line
	2150 6600 2250 6600
Wire Wire Line
	2250 6600 2250 6700
Wire Wire Line
	2250 6700 2150 6700
$Comp
L power:+3.3V #PWR06
U 1 1 5CDB65A8
P 2850 6800
F 0 "#PWR06" H 2850 6650 50  0001 C CNN
F 1 "+3.3V" V 2865 6928 50  0000 L CNN
F 2 "" H 2850 6800 50  0001 C CNN
F 3 "" H 2850 6800 50  0001 C CNN
	1    2850 6800
	1    0    0    -1  
$EndComp
Connection ~ 3500 6800
Wire Wire Line
	3500 6800 3900 6800
Wire Wire Line
	2850 6800 2950 6800
$Comp
L Device:C_Small C3
U 1 1 5CDCD01B
P 2950 6900
F 0 "C3" H 2750 6950 50  0000 L CNN
F 1 "100nF" H 2650 6850 50  0000 L CNN
F 2 "Capacitor_SMD:C_0603_1608Metric_Pad1.05x0.95mm_HandSolder" H 2950 6900 50  0001 C CNN
F 3 "~" H 2950 6900 50  0001 C CNN
	1    2950 6900
	1    0    0    -1  
$EndComp
Connection ~ 2950 6800
Wire Wire Line
	2950 6800 3300 6800
$Comp
L Device:C_Small C4
U 1 1 5CDCDFEC
P 3300 6900
F 0 "C4" H 3150 6950 50  0000 L CNN
F 1 "4.7uF" H 3000 6850 50  0000 L CNN
F 2 "Capacitor_SMD:C_0603_1608Metric_Pad1.05x0.95mm_HandSolder" H 3300 6900 50  0001 C CNN
F 3 "~" H 3300 6900 50  0001 C CNN
	1    3300 6900
	1    0    0    -1  
$EndComp
Connection ~ 3300 6800
Wire Wire Line
	3300 6800 3500 6800
$Comp
L power:GND #PWR?
U 1 1 5CDCE46E
P 2850 7100
AR Path="/5CD207E7/5CDCE46E" Ref="#PWR?"  Part="1" 
AR Path="/5CDCE46E" Ref="#PWR07"  Part="1" 
F 0 "#PWR07" H 2850 6850 50  0001 C CNN
F 1 "GND" H 2772 7063 50  0000 R CNN
F 2 "" H 2850 7100 50  0001 C CNN
F 3 "" H 2850 7100 50  0001 C CNN
	1    2850 7100
	1    0    0    -1  
$EndComp
Wire Wire Line
	3300 7000 2950 7000
Wire Wire Line
	2950 7000 2850 7000
Wire Wire Line
	2850 7000 2850 7100
Connection ~ 2950 7000
Wire Wire Line
	3500 6800 3500 7000
$Comp
L Interface_USB:CH330N U1
U 1 1 5CDB60D2
P 3900 7100
F 0 "U1" H 3900 7581 50  0000 C CNN
F 1 "CH330N" H 3900 7490 50  0000 C CNN
F 2 "Package_SO:SOIC-8_3.9x4.9mm_P1.27mm" H 3750 7850 50  0001 C CNN
F 3 "http://www.wch.cn/downloads/file/240.html" H 3800 7300 50  0001 C CNN
	1    3900 7100
	1    0    0    -1  
$EndComp
Wire Wire Line
	2250 6700 2450 6700
Wire Wire Line
	2450 7250 3050 7250
Wire Wire Line
	3050 7250 3050 7200
Wire Wire Line
	3050 7200 3500 7200
Connection ~ 2250 6700
Wire Wire Line
	2350 7300 2350 6500
Wire Wire Line
	2350 6500 2250 6500
Connection ~ 2250 6500
Wire Wire Line
	2350 7300 3500 7300
$Comp
L power:GND #PWR?
U 1 1 5CE02BFF
P 3900 7500
AR Path="/5CD207E7/5CE02BFF" Ref="#PWR?"  Part="1" 
AR Path="/5CE02BFF" Ref="#PWR011"  Part="1" 
F 0 "#PWR011" H 3900 7250 50  0001 C CNN
F 1 "GND" H 3822 7463 50  0000 R CNN
F 2 "" H 3900 7500 50  0001 C CNN
F 3 "" H 3900 7500 50  0001 C CNN
	1    3900 7500
	1    0    0    -1  
$EndComp
Wire Wire Line
	4300 7000 4500 7000
Wire Wire Line
	4500 7000 4500 6350
Wire Wire Line
	4500 5100 5100 5100
Wire Wire Line
	5100 5100 5100 4350
Wire Wire Line
	5200 4350 5200 5250
Wire Wire Line
	5200 5250 4600 5250
Wire Wire Line
	4600 5250 4600 6400
Wire Wire Line
	4600 7100 4300 7100
Wire Wire Line
	2450 6700 2450 7250
$Comp
L Connector:TestPoint TP4
U 1 1 5CDED5C2
P 4600 6400
F 0 "TP4" V 4554 6588 50  0000 L CNN
F 1 "TestPoint" V 4645 6588 50  0000 L CNN
F 2 "TestPoint:TestPoint_THTPad_D1.5mm_Drill0.7mm" H 4800 6400 50  0001 C CNN
F 3 "~" H 4800 6400 50  0001 C CNN
	1    4600 6400
	0    1    1    0   
$EndComp
Connection ~ 4600 6400
Wire Wire Line
	4600 6400 4600 7100
$Comp
L Connector:TestPoint TP3
U 1 1 5CDED996
P 4500 6350
F 0 "TP3" V 4695 6422 50  0000 C CNN
F 1 "TestPoint" V 4604 6422 50  0000 C CNN
F 2 "TestPoint:TestPoint_THTPad_D1.5mm_Drill0.7mm" H 4700 6350 50  0001 C CNN
F 3 "~" H 4700 6350 50  0001 C CNN
	1    4500 6350
	0    -1   -1   0   
$EndComp
Connection ~ 4500 6350
Wire Wire Line
	4500 6350 4500 5100
$Comp
L Connector:TestPoint TP1
U 1 1 5CDEDEFE
P 2500 5900
F 0 "TP1" H 2558 6018 50  0000 L CNN
F 1 "TestPoint" H 2558 5927 50  0000 L CNN
F 2 "TestPoint:TestPoint_THTPad_D1.5mm_Drill0.7mm" H 2700 5900 50  0001 C CNN
F 3 "~" H 2700 5900 50  0001 C CNN
	1    2500 5900
	1    0    0    -1  
$EndComp
Wire Wire Line
	2500 5900 2950 5900
$Comp
L Connector:TestPoint TP2
U 1 1 5CDEF49B
P 4050 5750
F 0 "TP2" H 4108 5868 50  0000 L CNN
F 1 "TestPoint" H 4108 5777 50  0000 L CNN
F 2 "TestPoint:TestPoint_THTPad_D1.5mm_Drill0.7mm" H 4250 5750 50  0001 C CNN
F 3 "~" H 4250 5750 50  0001 C CNN
	1    4050 5750
	1    0    0    -1  
$EndComp
Wire Wire Line
	4000 5800 4050 5800
Wire Wire Line
	4050 5750 4050 5800
Connection ~ 4050 5800
Wire Wire Line
	4050 5800 4100 5800
$Comp
L power:GND #PWR?
U 1 1 5CD3B668
P 1550 7450
AR Path="/5CD207E7/5CD3B668" Ref="#PWR?"  Part="1" 
AR Path="/5CD3B668" Ref="#PWR02"  Part="1" 
F 0 "#PWR02" H 1550 7200 50  0001 C CNN
F 1 "GND" H 1555 7277 50  0000 C CNN
F 2 "" H 1550 7450 50  0001 C CNN
F 3 "" H 1550 7450 50  0001 C CNN
	1    1550 7450
	1    0    0    -1  
$EndComp
Wire Wire Line
	3950 2550 4000 2550
Wire Wire Line
	4000 2650 3950 2650
Wire Wire Line
	3950 2750 4000 2750
Wire Wire Line
	4000 2850 3950 2850
Wire Wire Line
	3950 2950 4000 2950
Wire Wire Line
	4000 3050 3950 3050
Wire Wire Line
	4400 4350 4400 4400
Wire Wire Line
	4500 4400 4500 4350
Wire Wire Line
	4600 4350 4600 4400
Wire Wire Line
	4700 4400 4700 4350
Wire Wire Line
	4800 4350 4800 4400
Wire Wire Line
	4900 4400 4900 4350
Wire Wire Line
	5000 4350 5000 4400
Wire Wire Line
	4900 1300 4900 1350
Wire Wire Line
	5000 1350 5000 1300
Wire Wire Line
	5100 1300 5100 1350
Wire Wire Line
	5200 1350 5200 1300
Wire Wire Line
	5300 1300 5300 1350
Text GLabel 5400 1300 1    50   Input ~ 0
P0.26
Text GLabel 5500 1300 1    50   Input ~ 0
P0.25
Wire Wire Line
	5400 1300 5400 1350
Wire Wire Line
	5500 1300 5500 1350
Text GLabel 6250 3450 2    50   Input ~ 0
MISO
Text GLabel 6250 3550 2    50   Input ~ 0
MOSI
Text GLabel 6250 3650 2    50   Input ~ 0
SCK
Text GLabel 4600 6650 2    50   Input ~ 0
P0.19
Text GLabel 4500 6650 0    50   Input ~ 0
P0.18
Wire Wire Line
	3650 3300 3850 3300
Wire Wire Line
	3850 3300 3850 3250
Wire Wire Line
	3850 3250 4000 3250
Wire Wire Line
	4000 3150 3700 3150
Wire Wire Line
	3700 3150 3700 3500
Wire Wire Line
	3700 3500 3650 3500
Wire Wire Line
	4000 3350 3850 3350
Wire Wire Line
	3850 3350 3850 3700
Wire Wire Line
	3850 3700 3650 3700
NoConn ~ 2150 7000
NoConn ~ 2150 7100
NoConn ~ 4800 1350
NoConn ~ 4500 1350
NoConn ~ 5350 6300
NoConn ~ 5450 6300
NoConn ~ 5550 6300
NoConn ~ 5650 6300
NoConn ~ 5750 6300
NoConn ~ 5850 6300
Wire Wire Line
	5800 2250 5950 2250
NoConn ~ 5400 4350
$Comp
L power:GND #PWR022
U 1 1 5CD56346
P 7500 3450
F 0 "#PWR022" H 7500 3200 50  0001 C CNN
F 1 "GND" H 7505 3277 50  0000 C CNN
F 2 "" H 7500 3450 50  0001 C CNN
F 3 "" H 7500 3450 50  0001 C CNN
	1    7500 3450
	1    0    0    -1  
$EndComp
Wire Wire Line
	2900 5750 2950 5750
NoConn ~ 4300 7300
Wire Wire Line
	5750 5300 5750 5200
Wire Wire Line
	5300 5200 5750 5200
$Comp
L Device:R_Small R?
U 1 1 5D1ACD2F
P 5550 5050
AR Path="/5CD207E7/5D1ACD2F" Ref="R?"  Part="1" 
AR Path="/5D1ACD2F" Ref="R6"  Part="1" 
F 0 "R6" V 5654 5050 50  0000 C CNN
F 1 "1.2K" V 5745 5050 50  0000 C CNN
F 2 "Resistor_SMD:R_0603_1608Metric_Pad1.05x0.95mm_HandSolder" H 5550 5050 50  0001 C CNN
F 3 "~" H 5550 5050 50  0001 C CNN
	1    5550 5050
	-1   0    0    1   
$EndComp
Wire Wire Line
	5550 5300 5550 5150
$Comp
L power:GND #PWR018
U 1 1 5D1B4E06
P 5550 4950
F 0 "#PWR018" H 5550 4700 50  0001 C CNN
F 1 "GND" H 5555 4777 50  0000 C CNN
F 2 "" H 5550 4950 50  0001 C CNN
F 3 "" H 5550 4950 50  0001 C CNN
	1    5550 4950
	-1   0    0    1   
$EndComp
Wire Wire Line
	1550 7400 1550 7450
Wire Wire Line
	1250 7450 1250 7400
Wire Wire Line
	2150 5900 2500 5900
Connection ~ 2500 5900
Wire Wire Line
	4300 4500 4300 4350
Connection ~ 4300 4500
Wire Bus Line
	6250 3050 6250 4950
Wire Bus Line
	5750 4950 6250 4950
$EndSCHEMATC
