EESchema Schematic File Version 4
LIBS:platform_pcb-cache
EELAYER 29 0
EELAYER END
$Descr A4 11693 8268
encoding utf-8
Sheet 2 3
Title ""
Date ""
Rev ""
Comp ""
Comment1 ""
Comment2 ""
Comment3 ""
Comment4 ""
$EndDescr
Wire Wire Line
	3950 850  3950 950 
Wire Wire Line
	2600 1250 2600 850 
Connection ~ 2600 1250
$Comp
L power:GND #PWR032
U 1 1 5CD3E433
P 5600 2050
F 0 "#PWR032" H 5600 1800 50  0001 C CNN
F 1 "GND" H 5605 1877 50  0000 C CNN
F 2 "" H 5600 2050 50  0001 C CNN
F 3 "" H 5600 2050 50  0001 C CNN
	1    5600 2050
	1    0    0    -1  
$EndComp
$Comp
L Device:C_Small C16
U 1 1 5CD43CDB
P 5350 1700
F 0 "C16" H 5259 1746 50  0000 R CNN
F 1 "4.7uF" H 5259 1655 50  0000 R CNN
F 2 "Capacitor_SMD:C_0603_1608Metric_Pad1.05x0.95mm_HandSolder" H 5350 1700 50  0001 C CNN
F 3 "~" H 5350 1700 50  0001 C CNN
	1    5350 1700
	1    0    0    -1  
$EndComp
Wire Wire Line
	4650 1550 4950 1550
Wire Wire Line
	5350 1600 5350 1550
Connection ~ 5350 1550
Wire Wire Line
	5350 1550 5600 1550
Wire Wire Line
	5600 1950 5350 1950
Wire Wire Line
	5350 1950 5350 1800
Wire Wire Line
	5600 1950 5600 2050
$Comp
L Device:C_Small C15
U 1 1 5CD45DBA
P 2150 1150
F 0 "C15" H 2242 1196 50  0000 L CNN
F 1 "4.7uF" H 2242 1105 50  0000 L CNN
F 2 "Capacitor_SMD:C_0603_1608Metric_Pad1.05x0.95mm_HandSolder" H 2150 1150 50  0001 C CNN
F 3 "~" H 2150 1150 50  0001 C CNN
	1    2150 1150
	1    0    0    -1  
$EndComp
$Comp
L power:GND #PWR026
U 1 1 5CD4643F
P 2150 1050
F 0 "#PWR026" H 2150 800 50  0001 C CNN
F 1 "GND" H 2155 877 50  0000 C CNN
F 2 "" H 2150 1050 50  0001 C CNN
F 3 "" H 2150 1050 50  0001 C CNN
	1    2150 1050
	-1   0    0    1   
$EndComp
Wire Wire Line
	2150 1250 2600 1250
Wire Wire Line
	4650 1750 4750 1750
Wire Wire Line
	4950 1750 4950 1550
Connection ~ 4950 1550
Wire Wire Line
	4950 1550 5350 1550
$Comp
L power:GND #PWR029
U 1 1 5CD49030
P 3950 2750
F 0 "#PWR029" H 3950 2500 50  0001 C CNN
F 1 "GND" H 3955 2577 50  0000 C CNN
F 2 "" H 3950 2750 50  0001 C CNN
F 3 "" H 3950 2750 50  0001 C CNN
	1    3950 2750
	1    0    0    -1  
$EndComp
$Comp
L power:GND #PWR027
U 1 1 5CD496F6
P 2950 1450
F 0 "#PWR027" H 2950 1200 50  0001 C CNN
F 1 "GND" V 2955 1322 50  0000 R CNN
F 2 "" H 2950 1450 50  0001 C CNN
F 3 "" H 2950 1450 50  0001 C CNN
	1    2950 1450
	0    1    1    0   
$EndComp
Wire Wire Line
	2600 1250 2600 1750
Wire Wire Line
	2600 850  3950 850 
Wire Wire Line
	2600 1250 3250 1250
Wire Wire Line
	2600 1750 3250 1750
Wire Wire Line
	2600 1750 2600 2450
Wire Wire Line
	2600 2450 3250 2450
Connection ~ 2600 1750
$Comp
L power:GND #PWR028
U 1 1 5CD50342
P 3250 2250
F 0 "#PWR028" H 3250 2000 50  0001 C CNN
F 1 "GND" V 3255 2122 50  0000 R CNN
F 2 "" H 3250 2250 50  0001 C CNN
F 3 "" H 3250 2250 50  0001 C CNN
	1    3250 2250
	0    1    1    0   
$EndComp
$Comp
L Device:R_Small R7
U 1 1 5CD507CD
P 3100 1650
F 0 "R7" V 2850 1650 50  0000 C CNN
F 1 "2K" V 2950 1650 50  0000 C CNN
F 2 "Resistor_SMD:R_0603_1608Metric_Pad1.05x0.95mm_HandSolder" H 3100 1650 50  0001 C CNN
F 3 "~" H 3100 1650 50  0001 C CNN
	1    3100 1650
	0    1    1    0   
$EndComp
Wire Wire Line
	3000 1650 3000 1450
Wire Wire Line
	3000 1450 2950 1450
Wire Wire Line
	3000 1450 3250 1450
Connection ~ 3000 1450
Text HLabel 8500 1250 2    50   Input ~ 0
3.3V
$Comp
L power:GND #PWR025
U 1 1 5CD31BA8
P 700 1550
F 0 "#PWR025" H 700 1300 50  0001 C CNN
F 1 "GND" H 705 1377 50  0000 C CNN
F 2 "" H 700 1550 50  0001 C CNN
F 3 "" H 700 1550 50  0001 C CNN
	1    700  1550
	0    -1   -1   0   
$EndComp
Text HLabel 700  1550 0    50   Input ~ 0
GND
Text HLabel 700  1250 0    50   Input ~ 0
Vin
Connection ~ 2150 1250
Text HLabel 4650 2050 2    50   Input ~ 0
PG
Text HLabel 5000 2350 2    50   Input ~ 0
STAT2
$Comp
L Regulator_Switching:TPS63001 U4
U 1 1 5CD84636
P 7250 1450
F 0 "U4" H 7250 2117 50  0000 C CNN
F 1 "TPS63001" H 7250 2026 50  0000 C CNN
F 2 "Package_SON:Texas_DRC0010J_ThermalVias" H 8100 900 50  0001 C CNN
F 3 "http://www.ti.com/lit/ds/symlink/tps63000.pdf" H 6950 2000 50  0001 C CNN
	1    7250 1450
	1    0    0    -1  
$EndComp
$Comp
L Device:L_Small L2
U 1 1 5CD85E80
P 7250 700
F 0 "L2" V 7435 700 50  0000 C CNN
F 1 "2.2uH" V 7344 700 50  0000 C CNN
F 2 "Inductor_SMD:L_Neosid_SMS-ME3015" H 7250 700 50  0001 C CNN
F 3 "~" H 7250 700 50  0001 C CNN
F 4 "lcsc" H 7250 700 50  0001 C CNN "Shop"
F 5 "https://lcsc.com/product-detail/Power-Inductors_Sunlord-SWPA3015S2R2MT_C43389.html" H 7250 700 50  0001 C CNN "ShopUrl"
	1    7250 700 
	0    -1   -1   0   
$EndComp
Wire Wire Line
	7650 1050 7700 1050
Wire Wire Line
	7700 1050 7700 700 
Wire Wire Line
	7700 700  7350 700 
Wire Wire Line
	6850 1050 6800 1050
Wire Wire Line
	6800 1050 6800 700 
Wire Wire Line
	6800 700  7150 700 
Wire Wire Line
	7650 1450 7750 1450
Wire Wire Line
	7750 1450 7750 1250
Wire Wire Line
	7750 1250 7900 1250
$Comp
L Device:R_Small R11
U 1 1 5CD89A71
P 6300 1350
F 0 "R11" V 6050 1350 50  0000 C CNN
F 1 "100" V 6150 1350 50  0000 C CNN
F 2 "Resistor_SMD:R_0603_1608Metric_Pad1.05x0.95mm_HandSolder" H 6300 1350 50  0001 C CNN
F 3 "~" H 6300 1350 50  0001 C CNN
	1    6300 1350
	-1   0    0    1   
$EndComp
Connection ~ 6300 1250
Wire Wire Line
	6300 1250 6850 1250
Wire Wire Line
	6650 1350 6850 1350
Wire Wire Line
	6650 1350 6650 1450
Wire Wire Line
	6650 1450 6300 1450
Wire Wire Line
	6300 1450 6300 1650
Wire Wire Line
	6300 1650 6850 1650
Connection ~ 6300 1450
$Comp
L Device:C_Small C18
U 1 1 5CD8C69D
P 6300 1750
F 0 "C18" H 6392 1796 50  0000 L CNN
F 1 "100nF" H 6392 1705 50  0000 L CNN
F 2 "Capacitor_SMD:C_0603_1608Metric_Pad1.05x0.95mm_HandSolder" H 6300 1750 50  0001 C CNN
F 3 "~" H 6300 1750 50  0001 C CNN
	1    6300 1750
	1    0    0    -1  
$EndComp
Connection ~ 6300 1650
$Comp
L power:GND #PWR038
U 1 1 5CD8CB80
P 6300 1850
F 0 "#PWR038" H 6300 1600 50  0001 C CNN
F 1 "GND" H 6305 1677 50  0000 C CNN
F 2 "" H 6300 1850 50  0001 C CNN
F 3 "" H 6300 1850 50  0001 C CNN
	1    6300 1850
	1    0    0    -1  
$EndComp
$Comp
L Device:C_Small C17
U 1 1 5CD8CE2B
P 5950 1350
F 0 "C17" H 6042 1396 50  0000 L CNN
F 1 "10uF" H 6042 1305 50  0000 L CNN
F 2 "Capacitor_SMD:C_0603_1608Metric_Pad1.05x0.95mm_HandSolder" H 5950 1350 50  0001 C CNN
F 3 "~" H 5950 1350 50  0001 C CNN
	1    5950 1350
	1    0    0    -1  
$EndComp
$Comp
L power:GND #PWR033
U 1 1 5CD8D2AD
P 5950 1450
F 0 "#PWR033" H 5950 1200 50  0001 C CNN
F 1 "GND" H 5955 1277 50  0000 C CNN
F 2 "" H 5950 1450 50  0001 C CNN
F 3 "" H 5950 1450 50  0001 C CNN
	1    5950 1450
	1    0    0    -1  
$EndComp
Connection ~ 5950 1250
Wire Wire Line
	5950 1250 6300 1250
Wire Wire Line
	4650 1250 5000 1250
$Comp
L power:GND #PWR040
U 1 1 5CD8E307
P 7150 2150
F 0 "#PWR040" H 7150 1900 50  0001 C CNN
F 1 "GND" H 7155 1977 50  0000 C CNN
F 2 "" H 7150 2150 50  0001 C CNN
F 3 "" H 7150 2150 50  0001 C CNN
	1    7150 2150
	1    0    0    -1  
$EndComp
Wire Wire Line
	7150 2150 7150 2100
Wire Wire Line
	7250 2050 7250 2100
Wire Wire Line
	7250 2100 7150 2100
Connection ~ 7150 2100
Wire Wire Line
	7150 2100 7150 2050
$Comp
L Device:C_Small C20
U 1 1 5CD8F8EF
P 7900 1350
F 0 "C20" H 7992 1396 50  0000 L CNN
F 1 "10uF" H 7992 1305 50  0000 L CNN
F 2 "Capacitor_SMD:C_0603_1608Metric_Pad1.05x0.95mm_HandSolder" H 7900 1350 50  0001 C CNN
F 3 "~" H 7900 1350 50  0001 C CNN
	1    7900 1350
	1    0    0    -1  
$EndComp
$Comp
L Device:C_Small C21
U 1 1 5CD8FE87
P 8250 1350
F 0 "C21" H 8342 1396 50  0000 L CNN
F 1 "10uF" H 8342 1305 50  0000 L CNN
F 2 "Capacitor_SMD:C_0603_1608Metric_Pad1.05x0.95mm_HandSolder" H 8250 1350 50  0001 C CNN
F 3 "~" H 8250 1350 50  0001 C CNN
	1    8250 1350
	1    0    0    -1  
$EndComp
Wire Wire Line
	7900 1250 8250 1250
Connection ~ 7900 1250
Connection ~ 8250 1250
Wire Wire Line
	8250 1250 8500 1250
$Comp
L power:GND #PWR041
U 1 1 5CD922A6
P 7900 1550
F 0 "#PWR041" H 7900 1300 50  0001 C CNN
F 1 "GND" H 7905 1377 50  0000 C CNN
F 2 "" H 7900 1550 50  0001 C CNN
F 3 "" H 7900 1550 50  0001 C CNN
	1    7900 1550
	1    0    0    -1  
$EndComp
Wire Wire Line
	7900 1450 7900 1500
Wire Wire Line
	7900 1500 8250 1500
Wire Wire Line
	8250 1500 8250 1450
Connection ~ 7900 1500
Wire Wire Line
	7900 1500 7900 1550
$Comp
L power:-BATT #PWR031
U 1 1 5CE25085
P 5600 1950
F 0 "#PWR031" H 5600 1800 50  0001 C CNN
F 1 "-BATT" V 5615 2078 50  0000 L CNN
F 2 "" H 5600 1950 50  0001 C CNN
F 3 "" H 5600 1950 50  0001 C CNN
	1    5600 1950
	0    1    1    0   
$EndComp
Connection ~ 5600 1950
$Comp
L power:+BATT #PWR030
U 1 1 5CE258ED
P 5600 1550
F 0 "#PWR030" H 5600 1400 50  0001 C CNN
F 1 "+BATT" V 5497 1587 50  0000 C CNN
F 2 "" H 5600 1550 50  0001 C CNN
F 3 "" H 5600 1550 50  0001 C CNN
	1    5600 1550
	0    1    1    0   
$EndComp
$Comp
L Battery_Management:MCP73871 U3
U 1 1 5CD345D6
P 3950 1850
F 0 "U3" H 3950 2931 50  0000 C CNN
F 1 "MCP73871" H 3950 2840 50  0000 C CNN
F 2 "Package_DFN_QFN:QFN-20-1EP_4x4mm_P0.5mm_EP2.5x2.5mm" H 4150 950 50  0001 L CIN
F 3 "http://www.mouser.com/ds/2/268/22090a-52174.pdf" H 3800 2400 50  0001 C CNN
	1    3950 1850
	1    0    0    -1  
$EndComp
Wire Wire Line
	3250 2050 2800 2050
Wire Wire Line
	2800 2050 2800 3200
Wire Wire Line
	5250 3200 5250 2600
Wire Wire Line
	2800 3200 3150 3200
$Comp
L Connector:TestPoint TP7
U 1 1 5CE0F91B
P 5000 1250
F 0 "TP7" H 5000 1575 50  0000 C CNN
F 1 "TestPoint" H 5000 1484 50  0000 C CNN
F 2 "TestPoint:TestPoint_THTPad_D1.5mm_Drill0.7mm" H 5200 1250 50  0001 C CNN
F 3 "~" H 5200 1250 50  0001 C CNN
	1    5000 1250
	1    0    0    -1  
$EndComp
Connection ~ 5000 1250
Wire Wire Line
	5000 1250 5100 1250
$Comp
L Connector:TestPoint TP5
U 1 1 5CE0FE24
P 3150 3200
F 0 "TP5" H 3150 3525 50  0000 C CNN
F 1 "TestPoint" H 3150 3434 50  0000 C CNN
F 2 "TestPoint:TestPoint_THTPad_D1.5mm_Drill0.7mm" H 3350 3200 50  0001 C CNN
F 3 "~" H 3350 3200 50  0001 C CNN
	1    3150 3200
	1    0    0    -1  
$EndComp
Connection ~ 3150 3200
Wire Wire Line
	3150 3200 5250 3200
$Comp
L Connector:TestPoint TP6
U 1 1 5CE1102B
P 4750 1750
F 0 "TP6" H 4692 1776 50  0000 R CNN
F 1 "TestPoint" H 4692 1867 50  0000 R CNN
F 2 "TestPoint:TestPoint_THTPad_D1.5mm_Drill0.7mm" H 4950 1750 50  0001 C CNN
F 3 "~" H 4950 1750 50  0001 C CNN
	1    4750 1750
	-1   0    0    1   
$EndComp
Connection ~ 4750 1750
Wire Wire Line
	4750 1750 4950 1750
Wire Wire Line
	700  1250 1650 1250
Text HLabel 5350 2300 3    50   Input ~ 0
STAT1
Connection ~ 5250 3200
Connection ~ 6000 3450
Wire Wire Line
	5350 3200 5250 3200
Wire Wire Line
	5550 3200 5700 3200
$Comp
L Device:R_Small R10
U 1 1 5CDC6783
P 5450 3200
F 0 "R10" V 5200 3200 50  0000 C CNN
F 1 "10k" V 5300 3200 50  0000 C CNN
F 2 "Resistor_SMD:R_0603_1608Metric_Pad1.05x0.95mm_HandSolder" H 5450 3200 50  0001 C CNN
F 3 "~" H 5450 3200 50  0001 C CNN
	1    5450 3200
	0    -1   -1   0   
$EndComp
Wire Wire Line
	5700 3450 5700 3200
Wire Wire Line
	6000 3450 5700 3450
$Comp
L Connector_Generic:Conn_01x02 J3
U 1 1 5CE2B23C
P 6200 3450
F 0 "J3" H 6280 3442 50  0000 L CNN
F 1 "Conn_01x02" H 6280 3351 50  0000 L CNN
F 2 "Connector_JST:JST_PH_B2B-PH-SM4-TB_1x02-1MP_P2.00mm_Vertical" H 6200 3450 50  0001 C CNN
F 3 "~" H 6200 3450 50  0001 C CNN
	1    6200 3450
	1    0    0    -1  
$EndComp
$Comp
L power:+BATT #PWR035
U 1 1 5CDC0F1D
P 6000 2700
F 0 "#PWR035" H 6000 2550 50  0001 C CNN
F 1 "+BATT" V 6015 2827 50  0000 L CNN
F 2 "" H 6000 2700 50  0001 C CNN
F 3 "" H 6000 2700 50  0001 C CNN
	1    6000 2700
	0    -1   -1   0   
$EndComp
$Comp
L power:+BATT #PWR037
U 1 1 5CDC04F8
P 6000 3550
F 0 "#PWR037" H 6000 3400 50  0001 C CNN
F 1 "+BATT" V 6015 3677 50  0000 L CNN
F 2 "" H 6000 3550 50  0001 C CNN
F 3 "" H 6000 3550 50  0001 C CNN
	1    6000 3550
	0    -1   -1   0   
$EndComp
$Comp
L Connector_Generic:Conn_01x03 J2
U 1 1 5CE23650
P 6200 2600
F 0 "J2" H 6280 2642 50  0000 L CNN
F 1 "Conn_01x03" H 6280 2551 50  0000 L CNN
F 2 "Connector_JST:JST_PH_B3B-PH-SM4-TB_1x03-1MP_P2.00mm_Vertical" H 6200 2600 50  0001 C CNN
F 3 "~" H 6200 2600 50  0001 C CNN
	1    6200 2600
	1    0    0    -1  
$EndComp
$Comp
L power:-BATT #PWR036
U 1 1 5CE2B81B
P 6000 3450
F 0 "#PWR036" H 6000 3300 50  0001 C CNN
F 1 "-BATT" V 6015 3577 50  0000 L CNN
F 2 "" H 6000 3450 50  0001 C CNN
F 3 "" H 6000 3450 50  0001 C CNN
	1    6000 3450
	1    0    0    -1  
$EndComp
Wire Wire Line
	5250 2600 6000 2600
$Comp
L power:-BATT #PWR034
U 1 1 5CE27038
P 6000 2500
F 0 "#PWR034" H 6000 2350 50  0001 C CNN
F 1 "-BATT" V 6015 2627 50  0000 L CNN
F 2 "" H 6000 2500 50  0001 C CNN
F 3 "" H 6000 2500 50  0001 C CNN
	1    6000 2500
	0    -1   -1   0   
$EndComp
Wire Wire Line
	7650 1250 7750 1250
Connection ~ 7750 1250
Wire Wire Line
	3200 1650 3250 1650
$Comp
L Device:LED_Small D2
U 1 1 5CEEE510
P 4750 2550
F 0 "D2" V 4704 2648 50  0000 L CNN
F 1 "LED_Small" V 4795 2648 50  0000 L CNN
F 2 "LED_SMD:LED_0603_1608Metric_Pad1.05x0.95mm_HandSolder" V 4750 2550 50  0001 C CNN
F 3 "~" V 4750 2550 50  0001 C CNN
	1    4750 2550
	0    1    1    0   
$EndComp
$Comp
L Device:R_Small R8
U 1 1 5CEEF3A5
P 4750 2850
F 0 "R8" V 4500 2850 50  0000 C CNN
F 1 "2K" V 4600 2850 50  0000 C CNN
F 2 "Resistor_SMD:R_0603_1608Metric_Pad1.05x0.95mm_HandSolder" H 4750 2850 50  0001 C CNN
F 3 "~" H 4750 2850 50  0001 C CNN
	1    4750 2850
	1    0    0    -1  
$EndComp
Wire Wire Line
	1650 1250 1650 3350
Wire Wire Line
	1650 3350 4750 3350
Wire Wire Line
	4750 3350 4750 2950
Connection ~ 1650 1250
Wire Wire Line
	1650 1250 2150 1250
Wire Wire Line
	4750 2750 4750 2650
Wire Wire Line
	4750 2450 4750 2350
Wire Wire Line
	4750 2350 4650 2350
Wire Wire Line
	4750 2350 5000 2350
Connection ~ 4750 2350
Wire Wire Line
	6750 2300 6750 1450
Wire Wire Line
	6750 1450 6850 1450
$Comp
L Device:R_Small R9
U 1 1 5CF08D3E
P 5100 2150
F 0 "R9" V 4850 2150 50  0000 C CNN
F 1 "2K" V 4950 2150 50  0000 C CNN
F 2 "Resistor_SMD:R_0603_1608Metric_Pad1.05x0.95mm_HandSolder" H 5100 2150 50  0001 C CNN
F 3 "~" H 5100 2150 50  0001 C CNN
	1    5100 2150
	1    0    0    -1  
$EndComp
Wire Wire Line
	5100 2050 5100 1250
Connection ~ 5100 1250
Wire Wire Line
	5100 1250 5950 1250
Wire Wire Line
	4650 2250 5100 2250
Wire Wire Line
	5100 2250 5100 2300
Wire Wire Line
	5100 2300 6750 2300
Connection ~ 5100 2250
$Comp
L Device:C_Small C19
U 1 1 5CF0F581
P 6850 2300
F 0 "C19" H 6942 2346 50  0000 L CNN
F 1 "10nF" H 6942 2255 50  0000 L CNN
F 2 "Capacitor_SMD:C_0603_1608Metric_Pad1.05x0.95mm_HandSolder" H 6850 2300 50  0001 C CNN
F 3 "~" H 6850 2300 50  0001 C CNN
	1    6850 2300
	0    -1   -1   0   
$EndComp
Connection ~ 6750 2300
$Comp
L power:GND #PWR039
U 1 1 5CF10547
P 6950 2300
F 0 "#PWR039" H 6950 2050 50  0001 C CNN
F 1 "GND" H 6955 2127 50  0000 C CNN
F 2 "" H 6950 2300 50  0001 C CNN
F 3 "" H 6950 2300 50  0001 C CNN
	1    6950 2300
	1    0    0    -1  
$EndComp
$EndSCHEMATC
