
G21
G90
G94
F60.00
G00 Z0.5000
M03 S18000
G4 P1
G00 X4.3180Y-40.6400
G01 Z-2.0000
G01 Z0
G00 Z0.5000
G00 X28.6620Y-60.9600
G01 Z-2.0000
G01 Z0
G00 Z0.5000
G00 X26.1620Y-60.9600
G01 Z-2.0000
G01 Z0
G00 Z0.5000
G00 X42.6720Y-60.9600
G01 Z-2.0000
G01 Z0
G00 Z0.5000
G00 X32.5120Y-60.9600
G01 Z-2.0000
G01 Z0
G00 Z0.5000
G00 X22.0980Y-60.9600
G01 Z-2.0000
G01 Z0
G00 Z0.5000
G00 X11.9380Y-60.9600
G01 Z-2.0000
G01 Z0
G00 Z0.5000
G00 X4.3180Y-50.8000
G01 Z-2.0000
G01 Z0
G00 Z0.5000
G00 X53.5940Y-37.8460
G01 Z-2.0000
G01 Z0
G00 Z0.5000
G00 X53.5940Y-52.0700
G01 Z-2.0000
G01 Z0
G00 Z0.5000
G00 X42.6720Y-12.1920
G01 Z-2.0000
G01 Z0
G00 Z0.5000
G00 X29.4640Y-40.6400
G01 Z-2.0000
G01 Z0
G00 Z0.5000
G00 X27.4320Y-13.2350
G01 Z-2.0000
G01 Z0
G00 Z0.5000
G00 X15.7480Y-42.9260
G01 Z-2.0000
G01 Z0
G00 Z0.5000
G00 X10.9220Y-40.6400
G01 Z-2.0000
G01 Z0
G00 Z0.5000
G00 X4.3180Y-54.8640
G01 Z-2.0000
G01 Z0
G00 Z0.5000
G00 X7.8740Y-58.4200
G01 Z-2.0000
G01 Z0
G00 Z0.5000
G00 X7.8740Y-60.9600
G01 Z-2.0000
G01 Z0
G00 Z0.5000
G00 X15.7480Y-32.7660
G01 Z-2.0000
G01 Z0
G00 Z0.5000
G00 X15.7480Y-35.3060
G01 Z-2.0000
G01 Z0
G00 Z0.5000
G00 X15.7480Y-37.8460
G01 Z-2.0000
G01 Z0
G00 Z0.5000
G00 X15.7480Y-40.3860
G01 Z-2.0000
G01 Z0
G00 Z0.5000
G00 X50.8000Y-4.5720
G01 Z-2.0000
G01 Z0
G00 Z0.5000
G00 X50.8000Y-7.1120
G01 Z-2.0000
G01 Z0
G00 Z0.5000
G00 X50.8000Y-9.6520
G01 Z-2.0000
G01 Z0
G00 Z0.5000
G00 X50.8000Y-12.1920
G01 Z-2.0000
G01 Z0
G00 Z0.5000
G00 X15.7480Y-14.2240
G01 Z-2.0000
G01 Z0
G00 Z0.5000
G00 X15.7480Y-16.7640
G01 Z-2.0000
G01 Z0
G00 Z0.5000
G00 X15.7480Y-19.3040
G01 Z-2.0000
G01 Z0
G00 Z0.5000
G00 X15.7480Y-21.8440
G01 Z-2.0000
G01 Z0
G00 Z0.5000
G00 X15.7480Y-24.3840
G01 Z-2.0000
G01 Z0
G00 Z0.5000
G00 X15.7480Y-26.9240
G01 Z-2.0000
G01 Z0
G00 Z0.5000
G00 X4.3180Y-58.4200
G01 Z-2.0000
G01 Z0
G00 Z0.5000
G00 X4.3180Y-60.9600
G01 Z-2.0000
G01 Z0
G00 Z0.5000
G00 X50.8000Y-48.5140
G01 Z-2.0000
G01 Z0
G00 Z0.5000
G00 X50.8000Y-51.0540
G01 Z-2.0000
G01 Z0
G00 Z0.5000
G00 X50.8000Y-53.5940
G01 Z-2.0000
G01 Z0
G00 Z0.5000
G00 X50.8000Y-56.1340
G01 Z-2.0000
G01 Z0
G00 Z0.5000
G00 X50.8000Y-58.6740
G01 Z-2.0000
G01 Z0
G00 Z0.5000
G00 X50.8000Y-61.2140
G01 Z-2.0000
G01 Z0
G00 Z0.5000
G00 X15.7480Y-45.2120
G01 Z-2.0000
G01 Z0
G00 Z0.5000
G00 X15.7480Y-47.7520
G01 Z-2.0000
G01 Z0
G00 Z0.5000
G00 X15.7480Y-50.2920
G01 Z-2.0000
G01 Z0
G00 Z0.5000
G00 X15.7480Y-52.8320
G01 Z-2.0000
G01 Z0
G00 Z0.5000
G00 X15.7480Y-55.3720
G01 Z-2.0000
G01 Z0
G00 Z0.5000
G00 X50.8000Y-26.4160
G01 Z-2.0000
G01 Z0
G00 Z0.5000
G00 X50.8000Y-28.9560
G01 Z-2.0000
G01 Z0
G00 Z0.5000
G00 X50.8000Y-31.4960
G01 Z-2.0000
G01 Z0
G00 Z0.5000
G00 X50.8000Y-34.0360
G01 Z-2.0000
G01 Z0
G00 Z0.5000
G00 X50.8000Y-41.6560
G01 Z-2.0000
G01 Z0
G00 Z0.5000
G00 X50.8000Y-44.1960
G01 Z-2.0000
G01 Z0
G00 Z0.5000
G00 X38.8940Y-6.5020
G01 Z-2.0000
G01 Z0
G00 Z0.5000
G00 X38.8940Y-9.0420
G01 Z-2.0000
G01 Z0
G00 Z0.5000
G00 X38.8940Y-11.5820
G01 Z-2.0000
G01 Z0
G00 Z0.5000
G00 X38.8940Y-14.1220
G01 Z-2.0000
G01 Z0
G00 Z0.5000
G00 X38.8940Y-16.6620
G01 Z-2.0000
G01 Z0
G00 Z0.5000
G00 X38.8940Y-19.2020
G01 Z-2.0000
G01 Z0
G00 Z0.5000
G00 X38.8940Y-21.7420
G01 Z-2.0000
G01 Z0
G00 Z0.5000
G00 X38.8940Y-24.2820
G01 Z-2.0000
G01 Z0
G00 Z0.5000
G00 X38.8940Y-26.8220
G01 Z-2.0000
G01 Z0
G00 Z0.5000
G00 X38.8940Y-29.3620
G01 Z-2.0000
G01 Z0
G00 Z0.5000
G00 X38.8940Y-31.9020
G01 Z-2.0000
G01 Z0
G00 Z0.5000
G00 X38.8940Y-34.4420
G01 Z-2.0000
G01 Z0
G00 Z0.5000
G00 X38.8940Y-36.9820
G01 Z-2.0000
G01 Z0
G00 Z0.5000
G00 X38.8940Y-39.5220
G01 Z-2.0000
G01 Z0
G00 Z0.5000
G00 X38.8940Y-42.0620
G01 Z-2.0000
G01 Z0
G00 Z0.5000
G00 X38.8940Y-44.6020
G01 Z-2.0000
G01 Z0
G00 Z0.5000
G00 X38.8940Y-47.1420
G01 Z-2.0000
G01 Z0
G00 Z0.5000
G00 X38.8940Y-49.6820
G01 Z-2.0000
G01 Z0
G00 Z0.5000
G00 X38.8940Y-52.2220
G01 Z-2.0000
G01 Z0
G00 Z0.5000
G00 X38.8940Y-54.7620
G01 Z-2.0000
G01 Z0
G00 Z0.5000
G00 X32.5340Y-10.3120
G01 Z-2.0000
G01 Z0
G00 Z0.5000
G00 X29.9940Y-10.3120
G01 Z-2.0000
G01 Z0
G00 Z0.5000
G00 X23.6540Y-6.4510
G01 Z-2.0000
G01 Z0
G00 Z0.5000
G00 X23.6540Y-9.0420
G01 Z-2.0000
G01 Z0
G00 Z0.5000
G00 X23.6540Y-11.5820
G01 Z-2.0000
G01 Z0
G00 Z0.5000
G00 X23.6540Y-14.1220
G01 Z-2.0000
G01 Z0
G00 Z0.5000
G00 X23.6540Y-16.6620
G01 Z-2.0000
G01 Z0
G00 Z0.5000
G00 X23.6540Y-19.2020
G01 Z-2.0000
G01 Z0
G00 Z0.5000
G00 X23.6540Y-21.7420
G01 Z-2.0000
G01 Z0
G00 Z0.5000
G00 X23.6540Y-24.2820
G01 Z-2.0000
G01 Z0
G00 Z0.5000
G00 X23.6540Y-26.8220
G01 Z-2.0000
G01 Z0
G00 Z0.5000
G00 X23.6540Y-29.3620
G01 Z-2.0000
G01 Z0
G00 Z0.5000
G00 X23.6540Y-31.9020
G01 Z-2.0000
G01 Z0
G00 Z0.5000
G00 X23.6540Y-34.4420
G01 Z-2.0000
G01 Z0
G00 Z0.5000
G00 X23.6540Y-36.9820
G01 Z-2.0000
G01 Z0
G00 Z0.5000
G00 X23.6540Y-39.5220
G01 Z-2.0000
G01 Z0
G00 Z0.5000
G00 X23.6540Y-42.0620
G01 Z-2.0000
G01 Z0
G00 Z0.5000
G00 X23.6540Y-44.6020
G01 Z-2.0000
G01 Z0
G00 Z0.5000
G00 X23.6540Y-47.1420
G01 Z-2.0000
G01 Z0
G00 Z0.5000
G00 X23.6540Y-49.6820
G01 Z-2.0000
G01 Z0
G00 Z0.5000
G00 X23.6540Y-52.2220
G01 Z-2.0000
G01 Z0
G00 Z0.5000
G00 X23.6540Y-54.7620
G01 Z-2.0000
G01 Z0
G00 Z0.5000
G00 X0.0000Y0.0000
M05
